$MeshFormat
2.2 0 8
$EndMeshFormat
$PhysicalNames
4
2 2 "outer_iface1"
2 3 "outer_iface2"
2 4 "outer_iface3"
3 1 "pml"
$EndPhysicalNames
$Nodes
279
1 0.5 0 0
2 0.5 0.5 0
3 0 0.5 0
4 0.65 0 0
5 0.65 0.5 0
6 0.65 0.65 0
7 0 0.65 0
8 0.5 0.65 0
9 0 0 0.5
10 0.5 0 0.5
11 0.5 0.5 0.5
12 0 0.5 0.5
13 0.5 0.65 0.5
14 0 0.65 0.5
15 0.65 0.5 0.5
16 0.65 0.65 0.5
17 0.65 0 0.5
18 0 0 0.65
19 0.5 0 0.65
20 0.5 0.5 0.65
21 0 0.5 0.65
22 0.65 0 0.65
23 0.65 0.5 0.65
24 0.5 0.65 0.65
25 0 0.65 0.65
26 0.65 0.65 0.65
27 0.5 0.1249999999997055 0
28 0.5 0.2499999999993461 0
29 0.5 0.3749999999996703 0
30 0.1249999999997055 0.5 0
31 0.2499999999993461 0.5 0
32 0.3749999999996703 0.5 0
33 0 0.5750000000000217 0
34 0.1249999999997055 0.65 0
35 0.2499999999993461 0.65 0
36 0.3749999999996703 0.65 0
37 0.5 0.5750000000000217 0
38 0.5750000000000217 0.65 0
39 0.5750000000000217 0.5 0
40 0.65 0.5750000000000217 0
41 0.5750000000000217 0 0
42 0.65 0.1249999999997055 0
43 0.65 0.2499999999993461 0
44 0.65 0.3749999999996703 0
45 0.1249999999997055 0 0.5
46 0.2499999999993461 0 0.5
47 0.3749999999996703 0 0.5
48 0.5 0.1249999999997055 0.5
49 0.5 0.2499999999993461 0.5
50 0.5 0.3749999999996703 0.5
51 0.3750000000001735 0.5 0.5
52 0.2500000000010297 0.5 0.5
53 0.1250000000005203 0.5 0.5
54 0 0.3750000000001735 0.5
55 0 0.2500000000010297 0.5
56 0 0.1250000000005203 0.5
57 0.5 0 0.1249999999997055
58 0.5 0 0.2499999999993461
59 0.5 0 0.3749999999996703
60 0.5 0.5 0.1249999999997055
61 0.5 0.5 0.2499999999993461
62 0.5 0.5 0.3749999999996703
63 0 0.5 0.1249999999997055
64 0 0.5 0.2499999999993461
65 0 0.5 0.3749999999996703
66 0.5 0.5750000000000217 0.5
67 0.3750000000001735 0.65 0.5
68 0.2500000000010297 0.65 0.5
69 0.1250000000005203 0.65 0.5
70 0 0.5750000000004121 0.5
71 0.5 0.65 0.1249999999997055
72 0.5 0.65 0.2499999999993461
73 0.5 0.65 0.3749999999996703
74 0 0.65 0.1249999999997055
75 0 0.65 0.2499999999993461
76 0 0.65 0.3749999999996703
77 0.5750000000000217 0.5 0.5
78 0.65 0.5750000000000217 0.5
79 0.5750000000004121 0.65 0.5
80 0.65 0.5 0.1249999999997055
81 0.65 0.5 0.2499999999993461
82 0.65 0.5 0.3749999999996703
83 0.65 0.65 0.1249999999997055
84 0.65 0.65 0.2499999999993461
85 0.65 0.65 0.3749999999996703
86 0.5750000000000217 0 0.5
87 0.65 0.1249999999997055 0.5
88 0.65 0.2499999999993461 0.5
89 0.65 0.3749999999996703 0.5
90 0.65 0 0.1249999999997055
91 0.65 0 0.2499999999993461
92 0.65 0 0.3749999999996703
93 0.1249999999997055 0 0.65
94 0.2499999999993461 0 0.65
95 0.3749999999996703 0 0.65
96 0.5 0.1249999999997055 0.65
97 0.5 0.2499999999993461 0.65
98 0.5 0.3749999999996703 0.65
99 0.3750000000001735 0.5 0.65
100 0.2500000000010297 0.5 0.65
101 0.1250000000005203 0.5 0.65
102 0 0.3750000000001735 0.65
103 0 0.2500000000010297 0.65
104 0 0.1250000000005203 0.65
105 0 0 0.5750000000000217
106 0.5 0 0.5750000000000217
107 0.5 0.5 0.5750000000000217
108 0 0.5 0.5750000000000217
109 0.5750000000000217 0 0.65
110 0.65 0.1249999999997055 0.65
111 0.65 0.2499999999993461 0.65
112 0.65 0.3749999999996703 0.65
113 0.5750000000004121 0.5 0.65
114 0.65 0 0.5750000000000217
115 0.65 0.5 0.5750000000000217
116 0.5 0.5750000000000217 0.65
117 0.3750000000001735 0.65 0.65
118 0.2500000000010297 0.65 0.65
119 0.1250000000005203 0.65 0.65
120 0 0.5750000000004121 0.65
121 0.5 0.65 0.5750000000000217
122 0 0.65 0.5750000000000217
123 0.65 0.5750000000000217 0.65
124 0.5750000000004121 0.65 0.65
125 0.65 0.65 0.5750000000000217
126 0.1249999999997055 0.5750000000000217 0
127 0.2499999999993461 0.5750000000000217 0
128 0.3749999999996703 0.5750000000000217 0
129 0.5750000000000217 0.5750000000000217 0
130 0.5750000000000216 0.1249999999997055 0
131 0.5750000000000217 0.2499999999993461 0
132 0.5750000000000217 0.3749999999996703 0
133 0.5 0.1249999999997055 0.1249999999997054
134 0.5 0.1249999999997055 0.2499999999993461
135 0.5 0.1249999999997054 0.3749999999996703
136 0.5 0.2499999999993461 0.1249999999997055
137 0.5 0.2499999999993461 0.2499999999993461
138 0.5 0.2499999999993461 0.3749999999996703
139 0.5 0.3749999999996703 0.1249999999997055
140 0.5 0.3749999999996703 0.2499999999993461
141 0.5 0.3749999999996703 0.3749999999996704
142 0.1249999999999092 0.5 0.1249999999997055
143 0.1250000000001129 0.5 0.2499999999993461
144 0.1250000000003165 0.5 0.3749999999996703
145 0.249999999999767 0.5 0.1249999999997055
146 0.250000000000188 0.5 0.2499999999993461
147 0.2500000000006088 0.5 0.3749999999996703
148 0.3749999999997961 0.5 0.1249999999997054
149 0.374999999999922 0.5 0.2499999999993461
150 0.3750000000000477 0.5 0.3749999999996704
151 0.1249999999999092 0.1250000000003166 0.5
152 0.1250000000001129 0.2500000000006088 0.5
153 0.1250000000003166 0.3750000000000477 0.5
154 0.249999999999767 0.1250000000001129 0.5
155 0.2500000000001879 0.2500000000001879 0.5
156 0.2500000000006088 0.374999999999922 0.5
157 0.3749999999997961 0.1249999999999092 0.5
158 0.374999999999922 0.249999999999767 0.5
159 0.3750000000000476 0.3749999999997961 0.5
160 0.5 0.5750000000000217 0.1249999999997054
161 0.5 0.5750000000000216 0.2499999999993461
162 0.5 0.5750000000000217 0.3749999999996703
163 0.1249999999999092 0.65 0.1249999999997055
164 0.1250000000001129 0.65 0.2499999999993461
165 0.1250000000003165 0.65 0.3749999999996703
166 0.249999999999767 0.65 0.1249999999997055
167 0.250000000000188 0.65 0.2499999999993461
168 0.2500000000006088 0.65 0.3749999999996703
169 0.3749999999997961 0.65 0.1249999999997054
170 0.374999999999922 0.65 0.2499999999993461
171 0.3750000000000477 0.65 0.3749999999996704
172 0 0.5750000000001192 0.1249999999997054
173 0 0.5750000000002169 0.2499999999993461
174 0 0.5750000000003144 0.3749999999996703
175 0.3750000000001735 0.5750000000001194 0.5
176 0.2500000000010297 0.5750000000002169 0.5
177 0.1250000000005203 0.5750000000003146 0.5
178 0.5750000000000217 0.5 0.1249999999997054
179 0.5750000000000216 0.5 0.2499999999993461
180 0.5750000000000217 0.5 0.3749999999996703
181 0.65 0.5750000000000217 0.1249999999997054
182 0.65 0.5750000000000216 0.2499999999993461
183 0.65 0.5750000000000217 0.3749999999996703
184 0.5750000000001192 0.65 0.1249999999997054
185 0.5750000000002169 0.65 0.2499999999993461
186 0.5750000000003144 0.65 0.3749999999996703
187 0.5750000000002169 0.5750000000000217 0.5
188 0.5750000000000217 0 0.1249999999997054
189 0.5750000000000216 0 0.2499999999993461
190 0.5750000000000217 0 0.3749999999996703
191 0.65 0.1249999999997055 0.1249999999997054
192 0.65 0.1249999999997055 0.2499999999993461
193 0.65 0.1249999999997054 0.3749999999996703
194 0.65 0.2499999999993461 0.1249999999997055
195 0.65 0.2499999999993461 0.2499999999993461
196 0.65 0.2499999999993461 0.3749999999996703
197 0.65 0.3749999999996703 0.1249999999997055
198 0.65 0.3749999999996703 0.2499999999993461
199 0.65 0.3749999999996703 0.3749999999996704
200 0.5750000000000216 0.1249999999997055 0.5
201 0.5750000000000217 0.2499999999993461 0.5
202 0.5750000000000217 0.3749999999996703 0.5
203 0.1249999999997054 0 0.5750000000000217
204 0.2499999999993461 0 0.5750000000000217
205 0.3749999999996703 0 0.5750000000000217
206 0.5 0.1249999999997054 0.5750000000000217
207 0.5 0.2499999999993461 0.5750000000000217
208 0.5 0.3749999999996703 0.5750000000000217
209 0.3750000000001735 0.5 0.5750000000000217
210 0.2500000000010297 0.5 0.5750000000000217
211 0.1250000000005203 0.5 0.5750000000000217
212 0 0.3750000000001735 0.5750000000000217
213 0 0.2500000000010297 0.5750000000000217
214 0 0.1250000000005203 0.5750000000000217
215 0.1249999999999092 0.1250000000003166 0.65
216 0.1250000000001129 0.2500000000006088 0.65
217 0.1250000000003166 0.3750000000000477 0.65
218 0.249999999999767 0.1250000000001129 0.65
219 0.2500000000001879 0.2500000000001879 0.65
220 0.2500000000006088 0.374999999999922 0.65
221 0.3749999999997961 0.1249999999999092 0.65
222 0.374999999999922 0.249999999999767 0.65
223 0.3750000000000476 0.3749999999997961 0.65
224 0.5750000000000217 0 0.5750000000000217
225 0.65 0.1249999999997054 0.5750000000000217
226 0.65 0.2499999999993461 0.5750000000000217
227 0.65 0.3749999999996703 0.5750000000000217
228 0.5750000000002169 0.5 0.5750000000000217
229 0.5750000000001191 0.1249999999997055 0.65
230 0.5750000000002167 0.2499999999993461 0.65
231 0.5750000000003146 0.3749999999996703 0.65
232 0.5 0.5750000000000217 0.5750000000000217
233 0.3750000000001735 0.65 0.5750000000000217
234 0.2500000000010297 0.65 0.5750000000000217
235 0.1250000000005203 0.65 0.5750000000000217
236 0 0.5750000000004121 0.5750000000000217
237 0.3750000000001735 0.5750000000001194 0.65
238 0.2500000000010297 0.5750000000002169 0.65
239 0.1250000000005203 0.5750000000003146 0.65
240 0.65 0.5750000000000217 0.5750000000000217
241 0.5750000000004121 0.65 0.5750000000000217
242 0.5750000000004121 0.5750000000000217 0.65
243 0.1249999999999092 0.5750000000000951 0.1249999999997054
244 0.1250000000001129 0.575000000000168 0.2499999999993461
245 0.1250000000003165 0.5750000000002415 0.3749999999996704
246 0.249999999999767 0.5750000000000706 0.1249999999997055
247 0.250000000000188 0.5750000000001191 0.2499999999993462
248 0.2500000000006088 0.5750000000001683 0.3749999999996702
249 0.3749999999997963 0.5750000000000463 0.1249999999997054
250 0.3749999999999221 0.5750000000000705 0.2499999999993463
251 0.3750000000000479 0.575000000000095 0.3749999999996704
252 0.5750000000000706 0.5750000000000218 0.1249999999997054
253 0.5750000000001192 0.5750000000000214 0.2499999999993461
254 0.5750000000001683 0.5750000000000217 0.3749999999996704
255 0.5750000000000217 0.1249999999997054 0.1249999999997053
256 0.5750000000000215 0.1249999999997055 0.2499999999993461
257 0.5750000000000217 0.1249999999997054 0.3749999999996704
258 0.5750000000000217 0.249999999999346 0.1249999999997054
259 0.5750000000000216 0.2499999999993461 0.2499999999993462
260 0.5750000000000217 0.2499999999993462 0.3749999999996702
261 0.5750000000000218 0.3749999999996705 0.1249999999997054
262 0.5750000000000215 0.3749999999996703 0.2499999999993462
263 0.5750000000000217 0.3749999999996704 0.3749999999996704
264 0.1249999999999092 0.1250000000003165 0.5750000000000217
265 0.1250000000001129 0.2500000000006088 0.5750000000000214
266 0.1250000000003166 0.3750000000000476 0.5750000000000218
267 0.249999999999767 0.1250000000001128 0.5750000000000217
268 0.2500000000001879 0.2500000000001879 0.5750000000000216
269 0.250000000000609 0.374999999999922 0.5750000000000217
270 0.3749999999997961 0.1249999999999091 0.5750000000000217
271 0.374999999999922 0.2499999999997671 0.5750000000000215
272 0.3750000000000476 0.3749999999997961 0.5750000000000217
273 0.5750000000000703 0.1249999999997054 0.5750000000000217
274 0.575000000000119 0.2499999999993461 0.5750000000000217
275 0.5750000000001683 0.3749999999996705 0.5750000000000217
276 0.1250000000005203 0.5750000000003145 0.5750000000000217
277 0.2500000000010297 0.5750000000002167 0.5750000000000217
278 0.3750000000001736 0.5750000000001196 0.5750000000000217
279 0.5750000000003145 0.5750000000000217 0.5750000000000217
$EndNodes
$Elements
200
1 3 2 2 33 1 27 133 57
2 3 2 2 33 57 133 134 58
3 3 2 2 33 58 134 135 59
4 3 2 2 33 59 135 48 10
5 3 2 2 33 27 28 136 133
6 3 2 2 33 133 136 137 134
7 3 2 2 33 134 137 138 135
8 3 2 2 33 135 138 49 48
9 3 2 2 33 28 29 139 136
10 3 2 2 33 136 139 140 137
11 3 2 2 33 137 140 141 138
12 3 2 2 33 138 141 50 49
13 3 2 2 33 29 2 60 139
14 3 2 2 33 139 60 61 140
15 3 2 2 33 140 61 62 141
16 3 2 2 33 141 62 11 50
17 3 2 3 37 3 63 142 30
18 3 2 3 37 63 64 143 142
19 3 2 3 37 64 65 144 143
20 3 2 3 37 65 12 53 144
21 3 2 3 37 30 142 145 31
22 3 2 3 37 142 143 146 145
23 3 2 3 37 143 144 147 146
24 3 2 3 37 144 53 52 147
25 3 2 3 37 31 145 148 32
26 3 2 3 37 145 146 149 148
27 3 2 3 37 146 147 150 149
28 3 2 3 37 147 52 51 150
29 3 2 3 37 32 148 60 2
30 3 2 3 37 148 149 61 60
31 3 2 3 37 149 150 62 61
32 3 2 3 37 150 51 11 62
33 3 2 4 42 9 45 151 56
34 3 2 4 42 56 151 152 55
35 3 2 4 42 55 152 153 54
36 3 2 4 42 54 153 53 12
37 3 2 4 42 45 46 154 151
38 3 2 4 42 151 154 155 152
39 3 2 4 42 152 155 156 153
40 3 2 4 42 153 156 52 53
41 3 2 4 42 46 47 157 154
42 3 2 4 42 154 157 158 155
43 3 2 4 42 155 158 159 156
44 3 2 4 42 156 159 51 52
45 3 2 4 42 47 10 48 157
46 3 2 4 42 157 48 49 158
47 3 2 4 42 158 49 50 159
48 3 2 4 42 159 50 11 51
49 5 2 1 2 3 30 126 33 63 142 243 172
50 5 2 1 2 63 142 243 172 64 143 244 173
51 5 2 1 2 64 143 244 173 65 144 245 174
52 5 2 1 2 65 144 245 174 12 53 177 70
53 5 2 1 2 33 126 34 7 172 243 163 74
54 5 2 1 2 172 243 163 74 173 244 164 75
55 5 2 1 2 173 244 164 75 174 245 165 76
56 5 2 1 2 174 245 165 76 70 177 69 14
57 5 2 1 2 30 31 127 126 142 145 246 243
58 5 2 1 2 142 145 246 243 143 146 247 244
59 5 2 1 2 143 146 247 244 144 147 248 245
60 5 2 1 2 144 147 248 245 53 52 176 177
61 5 2 1 2 126 127 35 34 243 246 166 163
62 5 2 1 2 243 246 166 163 244 247 167 164
63 5 2 1 2 244 247 167 164 245 248 168 165
64 5 2 1 2 245 248 168 165 177 176 68 69
65 5 2 1 2 31 32 128 127 145 148 249 246
66 5 2 1 2 145 148 249 246 146 149 250 247
67 5 2 1 2 146 149 250 247 147 150 251 248
68 5 2 1 2 147 150 251 248 52 51 175 176
69 5 2 1 2 127 128 36 35 246 249 169 166
70 5 2 1 2 246 249 169 166 247 250 170 167
71 5 2 1 2 247 250 170 167 248 251 171 168
72 5 2 1 2 248 251 171 168 176 175 67 68
73 5 2 1 2 32 2 37 128 148 60 160 249
74 5 2 1 2 148 60 160 249 149 61 161 250
75 5 2 1 2 149 61 161 250 150 62 162 251
76 5 2 1 2 150 62 162 251 51 11 66 175
77 5 2 1 2 128 37 8 36 249 160 71 169
78 5 2 1 2 249 160 71 169 250 161 72 170
79 5 2 1 2 250 161 72 170 251 162 73 171
80 5 2 1 2 251 162 73 171 175 66 13 67
81 5 2 1 3 2 39 129 37 60 178 252 160
82 5 2 1 3 60 178 252 160 61 179 253 161
83 5 2 1 3 61 179 253 161 62 180 254 162
84 5 2 1 3 62 180 254 162 11 77 187 66
85 5 2 1 3 37 129 38 8 160 252 184 71
86 5 2 1 3 160 252 184 71 161 253 185 72
87 5 2 1 3 161 253 185 72 162 254 186 73
88 5 2 1 3 162 254 186 73 66 187 79 13
89 5 2 1 3 39 5 40 129 178 80 181 252
90 5 2 1 3 178 80 181 252 179 81 182 253
91 5 2 1 3 179 81 182 253 180 82 183 254
92 5 2 1 3 180 82 183 254 77 15 78 187
93 5 2 1 3 129 40 6 38 252 181 83 184
94 5 2 1 3 252 181 83 184 253 182 84 185
95 5 2 1 3 253 182 84 185 254 183 85 186
96 5 2 1 3 254 183 85 186 187 78 16 79
97 5 2 1 4 1 41 130 27 57 188 255 133
98 5 2 1 4 57 188 255 133 58 189 256 134
99 5 2 1 4 58 189 256 134 59 190 257 135
100 5 2 1 4 59 190 257 135 10 86 200 48
101 5 2 1 4 27 130 131 28 133 255 258 136
102 5 2 1 4 133 255 258 136 134 256 259 137
103 5 2 1 4 134 256 259 137 135 257 260 138
104 5 2 1 4 135 257 260 138 48 200 201 49
105 5 2 1 4 28 131 132 29 136 258 261 139
106 5 2 1 4 136 258 261 139 137 259 262 140
107 5 2 1 4 137 259 262 140 138 260 263 141
108 5 2 1 4 138 260 263 141 49 201 202 50
109 5 2 1 4 29 132 39 2 139 261 178 60
110 5 2 1 4 139 261 178 60 140 262 179 61
111 5 2 1 4 140 262 179 61 141 263 180 62
112 5 2 1 4 141 263 180 62 50 202 77 11
113 5 2 1 4 41 4 42 130 188 90 191 255
114 5 2 1 4 188 90 191 255 189 91 192 256
115 5 2 1 4 189 91 192 256 190 92 193 257
116 5 2 1 4 190 92 193 257 86 17 87 200
117 5 2 1 4 130 42 43 131 255 191 194 258
118 5 2 1 4 255 191 194 258 256 192 195 259
119 5 2 1 4 256 192 195 259 257 193 196 260
120 5 2 1 4 257 193 196 260 200 87 88 201
121 5 2 1 4 131 43 44 132 258 194 197 261
122 5 2 1 4 258 194 197 261 259 195 198 262
123 5 2 1 4 259 195 198 262 260 196 199 263
124 5 2 1 4 260 196 199 263 201 88 89 202
125 5 2 1 4 132 44 5 39 261 197 80 178
126 5 2 1 4 261 197 80 178 262 198 81 179
127 5 2 1 4 262 198 81 179 263 199 82 180
128 5 2 1 4 263 199 82 180 202 89 15 77
129 5 2 1 5 18 93 203 105 104 215 264 214
130 5 2 1 5 104 215 264 214 103 216 265 213
131 5 2 1 5 103 216 265 213 102 217 266 212
132 5 2 1 5 102 217 266 212 21 101 211 108
133 5 2 1 5 105 203 45 9 214 264 151 56
134 5 2 1 5 214 264 151 56 213 265 152 55
135 5 2 1 5 213 265 152 55 212 266 153 54
136 5 2 1 5 212 266 153 54 108 211 53 12
137 5 2 1 5 93 94 204 203 215 218 267 264
138 5 2 1 5 215 218 267 264 216 219 268 265
139 5 2 1 5 216 219 268 265 217 220 269 266
140 5 2 1 5 217 220 269 266 101 100 210 211
141 5 2 1 5 203 204 46 45 264 267 154 151
142 5 2 1 5 264 267 154 151 265 268 155 152
143 5 2 1 5 265 268 155 152 266 269 156 153
144 5 2 1 5 266 269 156 153 211 210 52 53
145 5 2 1 5 94 95 205 204 218 221 270 267
146 5 2 1 5 218 221 270 267 219 222 271 268
147 5 2 1 5 219 222 271 268 220 223 272 269
148 5 2 1 5 220 223 272 269 100 99 209 210
149 5 2 1 5 204 205 47 46 267 270 157 154
150 5 2 1 5 267 270 157 154 268 271 158 155
151 5 2 1 5 268 271 158 155 269 272 159 156
152 5 2 1 5 269 272 159 156 210 209 51 52
153 5 2 1 5 95 19 106 205 221 96 206 270
154 5 2 1 5 221 96 206 270 222 97 207 271
155 5 2 1 5 222 97 207 271 223 98 208 272
156 5 2 1 5 223 98 208 272 99 20 107 209
157 5 2 1 5 205 106 10 47 270 206 48 157
158 5 2 1 5 270 206 48 157 271 207 49 158
159 5 2 1 5 271 207 49 158 272 208 50 159
160 5 2 1 5 272 208 50 159 209 107 11 51
161 5 2 1 6 10 86 200 48 106 224 273 206
162 5 2 1 6 106 224 273 206 19 109 229 96
163 5 2 1 6 48 200 201 49 206 273 274 207
164 5 2 1 6 206 273 274 207 96 229 230 97
165 5 2 1 6 49 201 202 50 207 274 275 208
166 5 2 1 6 207 274 275 208 97 230 231 98
167 5 2 1 6 50 202 77 11 208 275 228 107
168 5 2 1 6 208 275 228 107 98 231 113 20
169 5 2 1 6 86 17 87 200 224 114 225 273
170 5 2 1 6 224 114 225 273 109 22 110 229
171 5 2 1 6 200 87 88 201 273 225 226 274
172 5 2 1 6 273 225 226 274 229 110 111 230
173 5 2 1 6 201 88 89 202 274 226 227 275
174 5 2 1 6 274 226 227 275 230 111 112 231
175 5 2 1 6 202 89 15 77 275 227 115 228
176 5 2 1 6 275 227 115 228 231 112 23 113
177 5 2 1 7 12 53 177 70 108 211 276 236
178 5 2 1 7 108 211 276 236 21 101 239 120
179 5 2 1 7 70 177 69 14 236 276 235 122
180 5 2 1 7 236 276 235 122 120 239 119 25
181 5 2 1 7 53 52 176 177 211 210 277 276
182 5 2 1 7 211 210 277 276 101 100 238 239
183 5 2 1 7 177 176 68 69 276 277 234 235
184 5 2 1 7 276 277 234 235 239 238 118 119
185 5 2 1 7 52 51 175 176 210 209 278 277
186 5 2 1 7 210 209 278 277 100 99 237 238
187 5 2 1 7 176 175 67 68 277 278 233 234
188 5 2 1 7 277 278 233 234 238 237 117 118
189 5 2 1 7 51 11 66 175 209 107 232 278
190 5 2 1 7 209 107 232 278 99 20 116 237
191 5 2 1 7 175 66 13 67 278 232 121 233
192 5 2 1 7 278 232 121 233 237 116 24 117
193 5 2 1 8 11 77 187 66 107 228 279 232
194 5 2 1 8 107 228 279 232 20 113 242 116
195 5 2 1 8 66 187 79 13 232 279 241 121
196 5 2 1 8 232 279 241 121 116 242 124 24
197 5 2 1 8 77 15 78 187 228 115 240 279
198 5 2 1 8 228 115 240 279 113 23 123 242
199 5 2 1 8 187 78 16 79 279 240 125 241
200 5 2 1 8 279 240 125 241 242 123 26 124
$EndElements
