[Info]
Version 1
Dimension 2
NumNodes 169
Num3DElements 0
Num2DElements 144
Num1DElements 0
NumNodeBC 56
NumSaveNodes 0
NumSaveElements 0
Num 2d-line      : 0
Num 2d-line,quad : 0
Num 3d-line      : 0
Num 3d-line,quad : 0
Num triangle     : 0
Num triangle,quad: 0
Num quadr        : 144
Num quadr,quad   : 0
Num tetra        : 0
Num tetra,quad   : 0
Num brick        : 0
Num brick,quad   : 0
Num pyramid      : 0
Num pyramid,quad : 0
Num wedge        : 0
Num wedge,quad   : 0

[Nodes]
#NodeNr x-coord y-coord z-coord
1  0.0  0.0  0.0
2  0.083333333333333  0.0  0.0
3  0.166666666666667  0.0  0.0
4  0.25  0.0  0.0
5  0.333333333333333  0.0  0.0
6  0.416666666666667  0.0  0.0
7  0.5  0.0  0.0
8  0.583333333333333  0.0  0.0
9  0.666666666666667  0.0  0.0
10  0.75  0.0  0.0
11  0.833333333333333  0.0  0.0
12  0.916666666666667  0.0  0.0
13  1.0  0.0  0.0
14  0.0  0.083333333333333  0.0
15  0.083333333333333  0.083333333333333  0.0
16  0.166666666666667  0.083333333333333  0.0
17  0.25  0.083333333333333  0.0
18  0.333333333333333  0.083333333333333  0.0
19  0.416666666666667  0.083333333333333  0.0
20  0.5  0.083333333333333  0.0
21  0.583333333333333  0.083333333333333  0.0
22  0.666666666666667  0.083333333333333  0.0
23  0.75  0.083333333333333  0.0
24  0.833333333333333  0.083333333333333  0.0
25  0.916666666666667  0.083333333333333  0.0
26  1.0  0.083333333333333  0.0
27  0.0  0.166666666666667  0.0
28  0.083333333333333  0.166666666666667  0.0
29  0.166666666666667  0.166666666666667  0.0
30  0.25  0.166666666666667  0.0
31  0.333333333333333  0.166666666666667  0.0
32  0.416666666666667  0.166666666666667  0.0
33  0.5  0.166666666666667  0.0
34  0.583333333333333  0.166666666666667  0.0
35  0.666666666666667  0.166666666666667  0.0
36  0.75  0.166666666666667  0.0
37  0.833333333333333  0.166666666666667  0.0
38  0.916666666666667  0.166666666666667  0.0
39  1.0  0.166666666666667  0.0
40  0.0  0.25  0.0
41  0.083333333333333  0.25  0.0
42  0.166666666666667  0.25  0.0
43  0.25  0.25  0.0
44  0.333333333333333  0.25  0.0
45  0.416666666666667  0.25  0.0
46  0.5  0.25  0.0
47  0.583333333333333  0.25  0.0
48  0.666666666666667  0.25  0.0
49  0.75  0.25  0.0
50  0.833333333333333  0.25  0.0
51  0.916666666666667  0.25  0.0
52  1.0  0.25  0.0
53  0.0  0.333333333333333  0.0
54  0.083333333333333  0.333333333333333  0.0
55  0.166666666666667  0.333333333333333  0.0
56  0.25  0.333333333333333  0.0
57  0.333333333333333  0.333333333333333  0.0
58  0.416666666666667  0.333333333333333  0.0
59  0.5  0.333333333333333  0.0
60  0.583333333333333  0.333333333333333  0.0
61  0.666666666666667  0.333333333333333  0.0
62  0.75  0.333333333333333  0.0
63  0.833333333333333  0.333333333333333  0.0
64  0.916666666666667  0.333333333333333  0.0
65  1.0  0.333333333333333  0.0
66  0.0  0.416666666666667  0.0
67  0.083333333333333  0.416666666666667  0.0
68  0.166666666666667  0.416666666666667  0.0
69  0.25  0.416666666666667  0.0
70  0.333333333333333  0.416666666666667  0.0
71  0.416666666666667  0.416666666666667  0.0
72  0.5  0.416666666666667  0.0
73  0.583333333333333  0.416666666666667  0.0
74  0.666666666666667  0.416666666666667  0.0
75  0.75  0.416666666666667  0.0
76  0.833333333333333  0.416666666666667  0.0
77  0.916666666666667  0.416666666666667  0.0
78  1.0  0.416666666666667  0.0
79  0.0  0.5  0.0
80  0.083333333333333  0.5  0.0
81  0.166666666666667  0.5  0.0
82  0.25  0.5  0.0
83  0.333333333333333  0.5  0.0
84  0.416666666666667  0.5  0.0
85  0.5  0.5  0.0
86  0.583333333333333  0.5  0.0
87  0.666666666666667  0.5  0.0
88  0.75  0.5  0.0
89  0.833333333333333  0.5  0.0
90  0.916666666666667  0.5  0.0
91  1.0  0.5  0.0
92  0.0  0.583333333333333  0.0
93  0.083333333333333  0.583333333333333  0.0
94  0.166666666666667  0.583333333333333  0.0
95  0.25  0.583333333333333  0.0
96  0.333333333333333  0.583333333333333  0.0
97  0.416666666666667  0.583333333333333  0.0
98  0.5  0.583333333333333  0.0
99  0.583333333333333  0.583333333333333  0.0
100  0.666666666666667  0.583333333333333  0.0
101  0.75  0.583333333333333  0.0
102  0.833333333333333  0.583333333333333  0.0
103  0.916666666666667  0.583333333333333  0.0
104  1.0  0.583333333333333  0.0
105  0.0  0.666666666666667  0.0
106  0.083333333333333  0.666666666666667  0.0
107  0.166666666666667  0.666666666666667  0.0
108  0.25  0.666666666666667  0.0
109  0.333333333333333  0.666666666666667  0.0
110  0.416666666666667  0.666666666666667  0.0
111  0.5  0.666666666666667  0.0
112  0.583333333333333  0.666666666666667  0.0
113  0.666666666666667  0.666666666666667  0.0
114  0.75  0.666666666666667  0.0
115  0.833333333333333  0.666666666666667  0.0
116  0.916666666666667  0.666666666666667  0.0
117  1.0  0.666666666666667  0.0
118  0.0  0.75  0.0
119  0.083333333333333  0.75  0.0
120  0.166666666666667  0.75  0.0
121  0.25  0.75  0.0
122  0.333333333333333  0.75  0.0
123  0.416666666666667  0.75  0.0
124  0.5  0.75  0.0
125  0.583333333333333  0.75  0.0
126  0.666666666666667  0.75  0.0
127  0.75  0.75  0.0
128  0.833333333333333  0.75  0.0
129  0.916666666666667  0.75  0.0
130  1.0  0.75  0.0
131  0.0  0.833333333333333  0.0
132  0.083333333333333  0.833333333333333  0.0
133  0.166666666666667  0.833333333333333  0.0
134  0.25  0.833333333333333  0.0
135  0.333333333333333  0.833333333333333  0.0
136  0.416666666666667  0.833333333333333  0.0
137  0.5  0.833333333333333  0.0
138  0.583333333333333  0.833333333333333  0.0
139  0.666666666666667  0.833333333333333  0.0
140  0.75  0.833333333333333  0.0
141  0.833333333333333  0.833333333333333  0.0
142  0.916666666666667  0.833333333333333  0.0
143  1.0  0.833333333333333  0.0
144  0.0  0.916666666666667  0.0
145  0.083333333333333  0.916666666666667  0.0
146  0.166666666666667  0.916666666666667  0.0
147  0.25  0.916666666666667  0.0
148  0.333333333333333  0.916666666666667  0.0
149  0.416666666666667  0.916666666666667  0.0
150  0.5  0.916666666666667  0.0
151  0.583333333333333  0.916666666666667  0.0
152  0.666666666666667  0.916666666666667  0.0
153  0.75  0.916666666666667  0.0
154  0.833333333333333  0.916666666666667  0.0
155  0.916666666666667  0.916666666666667  0.0
156  1.0  0.916666666666667  0.0
157  0.0  1.0  0.0
158  0.083333333333333  1.0  0.0
159  0.166666666666667  1.0  0.0
160  0.25  1.0  0.0
161  0.333333333333333  1.0  0.0
162  0.416666666666667  1.0  0.0
163  0.5  1.0  0.0
164  0.583333333333333  1.0  0.0
165  0.666666666666667  1.0  0.0
166  0.75  1.0  0.0
167  0.833333333333333  1.0  0.0
168  0.916666666666667  1.0  0.0
169  1.0  1.0  0.0

[1D Elements]
#ElemNr  ElemType  NrOfNodes  Level
#Node1 Node2 ... NodeNrOfNodes

[2D Elements]
#ElemNr  ElemType  NrOfNodes  Level
#Node1 Node2 ... NodeNrOfNodes
1 6 4 mech
1 2 15 14
2 6 4 mech
2 3 16 15
3 6 4 mech
3 4 17 16
4 6 4 mech
4 5 18 17
5 6 4 mech
5 6 19 18
6 6 4 mech
6 7 20 19
7 6 4 mech
7 8 21 20
8 6 4 mech
8 9 22 21
9 6 4 mech
9 10 23 22
10 6 4 mech
10 11 24 23
11 6 4 mech
11 12 25 24
12 6 4 mech
12 13 26 25
13 6 4 mech
14 15 28 27
14 6 4 mech
15 16 29 28
15 6 4 mech
16 17 30 29
16 6 4 mech
17 18 31 30
17 6 4 mech
18 19 32 31
18 6 4 mech
19 20 33 32
19 6 4 mech
20 21 34 33
20 6 4 mech
21 22 35 34
21 6 4 mech
22 23 36 35
22 6 4 mech
23 24 37 36
23 6 4 mech
24 25 38 37
24 6 4 mech
25 26 39 38
25 6 4 mech
27 28 41 40
26 6 4 mech
28 29 42 41
27 6 4 mech
29 30 43 42
28 6 4 mech
30 31 44 43
29 6 4 mech
31 32 45 44
30 6 4 mech
32 33 46 45
31 6 4 mech
33 34 47 46
32 6 4 mech
34 35 48 47
33 6 4 mech
35 36 49 48
34 6 4 mech
36 37 50 49
35 6 4 mech
37 38 51 50
36 6 4 mech
38 39 52 51
37 6 4 mech
40 41 54 53
38 6 4 mech
41 42 55 54
39 6 4 mech
42 43 56 55
40 6 4 mech
43 44 57 56
41 6 4 mech
44 45 58 57
42 6 4 mech
45 46 59 58
43 6 4 mech
46 47 60 59
44 6 4 mech
47 48 61 60
45 6 4 mech
48 49 62 61
46 6 4 mech
49 50 63 62
47 6 4 mech
50 51 64 63
48 6 4 mech
51 52 65 64
49 6 4 mech
53 54 67 66
50 6 4 mech
54 55 68 67
51 6 4 mech
55 56 69 68
52 6 4 mech
56 57 70 69
53 6 4 mech
57 58 71 70
54 6 4 mech
58 59 72 71
55 6 4 mech
59 60 73 72
56 6 4 mech
60 61 74 73
57 6 4 mech
61 62 75 74
58 6 4 mech
62 63 76 75
59 6 4 mech
63 64 77 76
60 6 4 mech
64 65 78 77
61 6 4 mech
66 67 80 79
62 6 4 mech
67 68 81 80
63 6 4 mech
68 69 82 81
64 6 4 mech
69 70 83 82
65 6 4 mech
70 71 84 83
66 6 4 mech
71 72 85 84
67 6 4 mech
72 73 86 85
68 6 4 mech
73 74 87 86
69 6 4 mech
74 75 88 87
70 6 4 mech
75 76 89 88
71 6 4 mech
76 77 90 89
72 6 4 mech
77 78 91 90
73 6 4 mech
79 80 93 92
74 6 4 mech
80 81 94 93
75 6 4 mech
81 82 95 94
76 6 4 mech
82 83 96 95
77 6 4 mech
83 84 97 96
78 6 4 mech
84 85 98 97
79 6 4 mech
85 86 99 98
80 6 4 mech
86 87 100 99
81 6 4 mech
87 88 101 100
82 6 4 mech
88 89 102 101
83 6 4 mech
89 90 103 102
84 6 4 mech
90 91 104 103
85 6 4 mech
92 93 106 105
86 6 4 mech
93 94 107 106
87 6 4 mech
94 95 108 107
88 6 4 mech
95 96 109 108
89 6 4 mech
96 97 110 109
90 6 4 mech
97 98 111 110
91 6 4 mech
98 99 112 111
92 6 4 mech
99 100 113 112
93 6 4 mech
100 101 114 113
94 6 4 mech
101 102 115 114
95 6 4 mech
102 103 116 115
96 6 4 mech
103 104 117 116
97 6 4 mech
105 106 119 118
98 6 4 mech
106 107 120 119
99 6 4 mech
107 108 121 120
100 6 4 mech
108 109 122 121
101 6 4 mech
109 110 123 122
102 6 4 mech
110 111 124 123
103 6 4 mech
111 112 125 124
104 6 4 mech
112 113 126 125
105 6 4 mech
113 114 127 126
106 6 4 mech
114 115 128 127
107 6 4 mech
115 116 129 128
108 6 4 mech
116 117 130 129
109 6 4 mech
118 119 132 131
110 6 4 mech
119 120 133 132
111 6 4 mech
120 121 134 133
112 6 4 mech
121 122 135 134
113 6 4 mech
122 123 136 135
114 6 4 mech
123 124 137 136
115 6 4 mech
124 125 138 137
116 6 4 mech
125 126 139 138
117 6 4 mech
126 127 140 139
118 6 4 mech
127 128 141 140
119 6 4 mech
128 129 142 141
120 6 4 mech
129 130 143 142
121 6 4 mech
131 132 145 144
122 6 4 mech
132 133 146 145
123 6 4 mech
133 134 147 146
124 6 4 mech
134 135 148 147
125 6 4 mech
135 136 149 148
126 6 4 mech
136 137 150 149
127 6 4 mech
137 138 151 150
128 6 4 mech
138 139 152 151
129 6 4 mech
139 140 153 152
130 6 4 mech
140 141 154 153
131 6 4 mech
141 142 155 154
132 6 4 mech
142 143 156 155
133 6 4 mech
144 145 158 157
134 6 4 mech
145 146 159 158
135 6 4 mech
146 147 160 159
136 6 4 mech
147 148 161 160
137 6 4 mech
148 149 162 161
138 6 4 mech
149 150 163 162
139 6 4 mech
150 151 164 163
140 6 4 mech
151 152 165 164
141 6 4 mech
152 153 166 165
142 6 4 mech
153 154 167 166
143 6 4 mech
154 155 168 167
144 6 4 mech
155 156 169 168

[3D Elements]
#ElemNr  ElemType  NrOfNodes  Level
#Node1 Node2 ... NodeNrOfNodes

[Node BC]
#NodeNr Level
1 south
2 south
3 south
4 south
5 south
6 south
7 south
8 south
9 south
10 south
11 south
12 south
13 south
157 north
158 north
159 north
160 north
161 north
162 north
163 north
164 north
165 north
166 north
167 north
168 north
169 north
1 west
14 west
27 west
40 west
53 west
66 west
79 west
92 west
105 west
118 west
131 west
144 west
157 west
13 east
26 east
39 east
52 east
65 east
78 east
91 east
104 east
117 east
130 east
143 east
156 east
169 east
1 south_west
13 south_east
157 north_west
169 north_east

[Save Nodes]
#NodeNr Level

[Save Elements]
#ElemNr Level

 
