
0                         1.000002885513102
8.33E-4                   0.996998895703202
0.001667                  0.9939940152556147
0.0025                    0.9910039597041367
0.003333                  0.9880250809456416
0.004167                  0.9850533668902951
0.005                     0.9820959321554511
0.005833                  0.9791491480270187
0.006667                  0.9762094593706191
0.0075                    0.9732838749761384
0.008333                  0.9703688250815917
0.009167                  0.967460788895807
0.01                      0.9645667005803714
0.010833                  0.9616830281500709
0.011667                  0.95880628840409
0.0125                    0.9559433404784675
0.013333                  0.953090690031161
0.014167                  0.9502448909391235
0.015                     0.9474127281861869
0.015833                  0.9445907446393232
0.016667                  0.9417755308271855
0.0175                    0.9389737984317914
0.018333                  0.9361821271016071
0.019167                  0.933397143590282
0.02                      0.930625487127915
0.020833                  0.9278637737178959
0.021667                  0.925108665912513
0.0225                    0.9223667313394833
0.023333                  0.9196346219310503
0.024167                  0.9169090356126904
0.025                     0.9141964692585355
0.025833                  0.9114936103043136
0.026667                  0.9087971916239997
0.0275                    0.9061136401862306
0.028333                  0.9034396785056238
0.029167                  0.9007720739806205
0.03                      0.8981171845218545
0.030833                  0.8954717672989873
0.031667                  0.8928326238114813
0.0325                    0.8902060437589843
0.033333                  0.8875888185429394
0.034167                  0.8849777833412086
0.035                     0.8823791604887433
0.035833                  0.8797897751962733
0.036667                  0.8772064958980552
0.0375                    0.8746354784101434
0.038333                  0.8720735813306205
0.039167                  0.8695177059289901
0.04                      0.8669739423473615
0.040833                  0.8644391821501572
0.041667                  0.8619103590216476
0.0425                    0.859393498274347
0.043333                  0.8568855240185581
0.044167                  0.854383401933737
0.045                     0.8518930933461366
0.045833                  0.8494115544928527
0.046667                  0.8469357826287547
0.0475                    0.8444716759377019
0.048333                  0.8420162223637702
0.049167                  0.8395664503198104
0.05                      0.8371281956887884
0.050833                  0.8346984777041689
0.051667                  0.8322743555189336
0.0525                    0.8298616035567983
0.053333                  0.8274572719230544
0.054167                  0.8250584500942553
0.055                     0.8226708518753911
0.055833                  0.820291557827008
0.056667                  0.8179176873333996
0.0575                    0.8155548944205062
0.058333                  0.8132002896883236
0.059167                  0.8108510220138785
0.06                      0.8085126864827012
0.060833                  0.8061824233194372
0.061667                  0.8038574104795744
0.0625                    0.8015431849460426
0.063333                  0.7992369161539356
0.064167                  0.7969358107241178
0.065                     0.7946453483733678
0.065833                  0.792362727334088
0.066667                  0.7900851824802316
0.0675                    0.7878181370978014
0.068333                  0.7855588178042705
0.069167                  0.78330448731538
0.07                      0.7810605133203768
0.070833                  0.7788241504108272
0.071667                  0.7765926887334013
0.0725                    0.7743714412143788
0.073333                  0.7721576900063261
0.074167                  0.7699487522820031
0.075                     0.7677498870323775
0.075833                  0.7655584035654913
0.076667                  0.7633716456665713
0.0775                    0.7611948192245962
0.078333                  0.7590252602945328
0.079167                  0.7568603388674837
0.08                      0.7547052085581747
0.080833                  0.7525572317600603
0.081667                  0.7504138042659855
0.0825                    0.7482800282417823
0.083333                  0.746153292013951
0.084167                  0.7440310167720826
0.085                     0.7419182540578384
0.085833                  0.7398124177258083
0.086667                  0.7377109539593336
0.0875                    0.7356188644978124
0.088333                  0.7335335883209869
0.089167                  0.731452596203299
0.09                      0.7293808409029899
0.090833                  0.7273157861218875
0.091667                  0.7252549268256836
0.0925                    0.7232031676087813
0.093333                  0.7211579964949629
0.094167                  0.719116932241242
0.095                     0.717084832094557
0.095833                  0.7150592080004695
0.096667                  0.7130376021102978
0.0975                    0.7110248251359592
0.098333                  0.7090184125475077
0.099167                  0.7070159294936016
0.1                       0.7050221409624451
0.100833                  0.7030346055513726
0.101667                  0.7010509110122941
0.1025                    0.6990757774168814
0.103333                  0.6971067860953345
0.104167                  0.6951415470095875
0.105                     0.6931847361198911
0.105833                  0.6912339570954853
0.106667                  0.6892868417171016
0.1075                    0.6873480226354838
0.108333                  0.6854151254674061
0.109167                  0.683485803422668
0.11                      0.6815646466411175
0.110833                  0.6796493022969132
0.111667                  0.677737444641516
0.1125                    0.6758336220987851
0.113333                  0.6739355030124808
0.114167                  0.672040782289304
0.115                     0.6701539674294826
0.115833                  0.6682727475594376
0.116667                  0.6663948378576802
0.1175                    0.6645247056884807
0.118333                  0.6626600605767894
0.119167                  0.6607986375907671
0.12                      0.6589448647431824
0.120833                  0.6570964715750087
0.121667                  0.6552512126639856
0.1225                    0.6534134774519456
0.123333                  0.6515810151150527
0.124167                  0.649751599364922
0.125                     0.6479295818467118
0.125833                  0.6461127309939195
0.126667                  0.6442988392726504
0.1275                    0.6424922213068573
0.128333                  0.640690664410989
0.129167                  0.6388919794338541
0.13                      0.637100444744426
0.130833                  0.6353138661638115
0.131667                  0.6335300725526383
0.1325                    0.6317533067877503
0.133333                  0.6299813928252336
0.134167                  0.6282121771687497
0.135                     0.6264498679614203
0.135833                  0.624692306924685
0.136667                  0.6229373578392348
0.1375                    0.621189194867665
0.138333                  0.6194456771297984
0.139167                  0.6177046853195479
0.14                      0.6159703603672795
0.140833                  0.6142405784268062
0.141667                  0.6125132367437361
0.1425                    0.6107924437599228
0.143333                  0.609076092300414
0.144167                  0.6073620958044691
0.145                     0.6056545309628268
0.145833                  0.603951306912727
0.146667                  0.6022503529307802
0.1475                    0.6005557146890693
0.148333                  0.5988653172802584
0.149167                  0.5971771054650242
0.15                      0.5954950946236925
0.150833                  0.5938172254498038
0.151667                  0.5921414578383003
0.1525                    0.5904717775979141
0.153333                  0.5888061406726718
0.154167                  0.5871425217430922
0.155                     0.5854848777624069
0.155833                  0.5838311795757107
0.156667                  0.5821794163051449
0.1575                    0.5805335167568381
0.158333                  0.5788914663315886
0.159167                  0.5772512682514168
0.16                      0.575616823878165
0.160833                  0.5739861328253086
0.161667                  0.5723572120766467
0.1625                    0.5707339362454077
0.163333                  0.5691143188189072
0.164167                  0.5674963902061881
0.165                     0.5658839989626303
0.165833                  0.5642751721120186
0.166667                  0.5626679531568554
0.1675                    0.5610661652774577
0.168333                  0.5594678487007574
0.169167                  0.5578710596935189
0.17                      0.5562795967374738
0.170833                  0.5546915129321602
0.171667                  0.5531048769830299
0.1725                    0.5515234633423035
0.173333                  0.54994533765578
0.174167                  0.5483685807441105
0.175                     0.5467969436932817
0.175833                  0.5452285043708435
0.176667                  0.5436613553941754
0.1775                    0.5420992251376133
0.178333                  0.5405402033706651
0.179167                  0.5389823941911015
0.18                      0.537429503910337
0.180833                  0.5358796338819488
0.181667                  0.5343308993724811
0.1825                    0.5327869852706871
0.183333                  0.5312460042008579
0.184167                  0.5297060822893243
0.185                     0.5281708836352683
0.185833                  0.5266385318241484
0.186667                  0.5251071635360501
0.1875                    0.5235804227068656
0.188333                  0.5220564435760197
0.189167                  0.5205333730762174
0.19                      0.5190148355977988
0.190833                  0.5174989757308809
0.191667                  0.5159839503633696
0.1925                    0.5144733649494158
0.193333                  0.512965374131373
0.194167                  0.5114581444568574
0.195                     0.5099552630473286
0.195833                  0.5084548943006323
0.196667                  0.5069552141343581
0.1975                    0.5054597919306104
0.198333                  0.5039668015515739
0.199167                  0.5024744279973962
0.2                       0.5009862234975302
0.200833                  0.4995003710896148
0.201667                  0.4980150645739412
0.2025                    0.49653383960500075
0.203333                  0.4950548881114937
0.204167                  0.49357641241485073
0.205                     0.49210193216397985
0.205833                  0.49062964789875874
0.206667                  0.48915777018538
0.2075                    0.48768980322981
0.208333                  0.4862239559054469
0.209167                  0.48475844675252766
0.21                      0.48329676508660613
0.210833                  0.48183712784211485
0.211667                  0.4803777612657451
0.2125                    0.4789221403274222
0.213333                  0.4774684897534263
0.214167                  0.47601504323379945
0.215                     0.47456526192852183
0.215833                  0.47311737809139226
0.216667                  0.47166963259551076
0.2175                    0.4702254733193171
0.218333                  0.4687831397825123
0.219167                  0.46734087978623146
0.22                      0.46590212844605544
0.220833                  0.46446513229076486
0.221667                  0.46302814579804913
0.2225                    0.4615945918310944
0.223333                  0.46016272367456357
0.224167                  0.4587308022357032
0.225                     0.45730223862644476
0.225833                  0.4558752926391265
0.226667                  0.4544482313664368
0.2275                    0.4530244546628049
0.228333                  0.45160222858278537
0.229167                  0.4501798261657715
0.23                      0.44876063649251646
0.230833                  0.44734293163921085
0.231667                  0.4459249903568809
0.2325                    0.4445101914279975
0.233333                  0.44309681271364265
0.234167                  0.4416831384457006
0.235                     0.44027253757469553
0.235833                  0.4388632935143999
0.236667                  0.43745369575050325
0.2375                    0.43604710385930867
0.238333                  0.4346418065791722
0.239167                  0.4332360984265429
0.24                      0.43183333005277175
0.240833                  0.43043179529613695
0.241667                  0.42902979348576675
0.2425                    0.42763066678791933
0.243333                  0.4262327139204788
0.244167                  0.42483423881147747
0.245                     0.4234385755725107
0.245833                  0.42204402758597576
0.246667                  0.42064890316766507
0.2475                    0.4192565287977639
0.248333                  0.41786521231072127
0.249167                  0.41647326620464153
0.25                      0.4150840097413014
0.250833                  0.4136957549994597
0.251667                  0.4123068184585145
0.2525                    0.410920512565318
0.253333                  0.4095351534406849
0.254167                  0.40814906134637996
0.255                     0.4067655423111414
0.255833                  0.40538291629791023
0.256667                  0.40399950715803723
0.2575                    0.40261861488789785
0.258333                  0.4012385630985344
0.259167                  0.3998576790408402
0.26                      0.39847925705784704
0.260833                  0.39710162421606815
0.261667                  0.3957231109827243
0.2625                    0.3943470064149935
0.263333                  0.3929716408499365
0.264167                  0.39159534778829835
0.265                     0.39022141136298283
0.265833                  0.3888481649984713
0.266667                  0.38747394505283644
0.2675                    0.3861020310853736
0.268333                  0.3847307594302699
0.269167                  0.3833584691299895
0.27                      0.3819884355136178
0.270833                  0.3806189976494857
0.271667                  0.3792484970974176
0.2725                    0.37788020528916133
0.273333                  0.37651246385848325
0.274167                  0.3751436167166201
0.275                     0.3737769317243858
0.275833                  0.3724107529145472
0.276667                  0.37104342639014226
0.2775                    0.36967821675674617
0.278333                  0.36831347028524425
0.279167                  0.36694753511354583
0.28                      0.3655836729002971
0.280833                  0.3642202319962538
0.281667                  0.36285556242316125
0.2825                    0.3614929231932881
0.283333                  0.3601306645822671
0.284167                  0.3587671383477826
0.285                     0.35740560114513203
0.285833                  0.356044405027523
0.286667                  0.35468190334296207
0.2875                    0.3533213506741312
0.288333                  0.3519611007041758
0.289167                  0.35059950823346114
0.29                      0.34923982604436676
0.290833                  0.34788040931036607
0.291667                  0.3465196141463785
0.2925                    0.3451606918016854
0.293333                  0.34380199880159723
0.294167                  0.34244189244431655
0.295                     0.3410836227027791
0.295833                  0.33972554732126087
0.296667                  0.3383660246530531
0.2975                    0.33700830364381146
0.298333                  0.33565074312718374
0.299167                  0.33429170238733963
0.3                       0.3329344295843273
0.300833                  0.3315772845150412
0.301667                  0.3302186272742163
0.3025                    0.32886170546922133
0.303333                  0.327504879738779
0.304167                  0.32614651087185736
0.305                     0.32478984614765216
0.305833                  0.3234332469294304
0.306667                  0.3220750745868328
0.3075                    0.32071857628914874
0.308333                  0.3193621140087979
0.309167                  0.31800404958895373
0.31                      0.31664763029644744
0.310833                  0.3152912186039833
0.311667                  0.3139331767220835
0.3125                    0.31257675221734227
0.313333                  0.3112203079560106
0.314167                  0.3098622064143069
0.315                     0.3085056956529618
0.315833                  0.30714913882805006
0.316667                  0.3057908985849016
0.3175                    0.30443422366316486
0.318333                  0.3030774774111191
0.319167                  0.30171902254801436
0.32                      0.30036210867175706
0.320833                  0.299005099226651
0.321667                  0.2976463569163727
0.3225                    0.2962891323671807
0.323333                  0.2949317890284014
0.324167                  0.2935726895007165
0.325                     0.29221508560269643
0.325833                  0.29085734070058
0.326667                  0.28949781720848194
0.3275                    0.2881397682942037
0.328333                  0.28678155715522535
0.329167                  0.28542154594068087
0.33                      0.28406298931511764
0.330833                  0.28270425022786205
0.331667                  0.28134369048533164
0.3325                    0.2799845663919679
0.333333                  0.27862524057005095
0.334167                  0.2772640744117184
0.335                     0.27590432599503095
0.335833                  0.274544357542051
0.336667                  0.2731825299603871
0.3375                    0.27182210323000217
0.338333                  0.27046143910205456
0.339167                  0.2690988979332298
0.34                      0.26773774172667164
0.340833                  0.266376331694873
0.341667                  0.26501302758137507
0.3425                    0.263651093526149
0.343333                  0.26228889013942025
0.344167                  0.26092477649177115
0.345                     0.2595620189675198
0.345833                  0.2581989775139927
0.346667                  0.25683401047221965
0.3475                    0.25547038657229837
0.348333                  0.25410646504046197
0.349167                  0.2527406034358041
0.35                      0.2513760729276618
0.350833                  0.25001123196789915
0.351667                  0.2486444372826903
0.3525                    0.24727896256930484
0.353333                  0.24591316545360253
0.354167                  0.2445454017822875
0.355                     0.24317894786202576
0.355833                  0.24181216044435774
0.356667                  0.24044339445333132
0.3575                    0.23907592887957896
0.358333                  0.2377081195564757
0.359167                  0.23633832044295758
0.36                      0.23496981328464664
0.360833                  0.23360095295310213
0.361667                  0.23223009240590545
0.3625                    0.23086051620537051
0.363333                  0.22949057822374097
0.364167                  0.22811863038072935
0.365                     0.22674796011396392
0.365833                  0.22537692025944503
0.366667                  0.2240038616673861
0.3675                    0.2226320747017958
0.368333                  0.2212599111296953
0.369167                  0.21988572070224305
0.37                      0.21851279675564358
0.370833                  0.21713948995749005
0.371667                  0.21576414893320417
0.3725                    0.21439007003188496
0.373333                  0.21301560279370946
0.374167                  0.21163909469443865
0.375                     0.21026384513068774
0.375833                  0.20888820249078643
0.376667                  0.20751051307936214
0.3775                    0.20613407936973596
0.378333                  0.204757248576181
0.379167                  0.20337836581337407
0.38                      0.20200073665631108
0.380833                  0.20062270712452365
0.381667                  0.19924262112754668
0.3825                    0.1978637873597083
0.383333                  0.19648455063030204
0.384167                  0.19510325362868078
0.385                     0.1937232081835428
0.385833                  0.19234275787841626
0.386667                  0.19096024417195948
0.3875                    0.18957898203594334
0.388333                  0.18819731381593635
0.389167                  0.1868135797315074
0.39                      0.18543109790080894
0.390833                  0.1840482094226872
0.391667                  0.1826632532704395
0.3925                    0.18127955070847096
0.393333                  0.17989544158107407
0.394167                  0.1785092636116344
0.395                     0.17712434120494205
0.395833                  0.175739012946242
0.396667                  0.17435161530677973
0.3975                    0.17296547582198507
0.398333                  0.17157893181536354
0.399167                  0.17019031850618943
0.4                       0.16880296654649077
0.400833                  0.16741521199695097
0.401667                  0.166025388828114
0.4025                    0.16463683078896824
0.403333                  0.1632478726800406
0.404167                  0.16185684722691043
0.405                     0.160467091253224
0.405833                  0.15907693830245942
0.406667                  0.15768471986252605
0.4075                    0.1562937758040206
0.408333                  0.1549024384198012
0.409167                  0.15350903796825818
0.41                      0.15211691733601876
0.410833                  0.15072440757327307
0.411667                  0.14932983771923686
0.4125                    0.1479365536417959
0.413333                  0.14654288515781783
0.414167                  0.14514716010060472
0.415                     0.14375272727955296
0.415833                  0.14235791529064465
0.416667                  0.14096105077507506
0.4175                    0.13956548544145767
0.418333                  0.13816954667845954
0.419167                  0.13677155995105983
0.42                      0.13537487982118565
0.420833                  0.13397783248527273
0.421667                  0.13257874225037614
0.4225                    0.13118096648144448
0.423333                  0.12978283020043546
0.424167                  0.1283826565755059
0.425                     0.12698380572185175
0.425833                  0.12558460150562667
0.426667                  0.12418336597743837
0.4275                    0.12278346194617917
0.428333                  0.12138321214266189
0.429167                  0.11998093752299568
0.43                      0.11858000352973501
0.430833                  0.1171787317810493
0.431667                  0.11577544216212665
0.4325                    0.11437350268722146
0.433333                  0.1129712338848517
0.434167                  0.1115669545956853
0.435                     0.11016403533940032
0.435833                  0.10876079558069911
0.436667                  0.10735555314225863
0.4375                    0.10595168098114684
0.438333                  0.10454749752450827
0.439167                  0.10314131960595188
0.44                      0.10173652254824342
0.440833                  0.10033142376933038
0.441667                  0.09892433914332932
0.4425                    0.0975186462849873
0.443333                  0.09611266163236075
0.444167                  0.09470470013105191
0.445                     0.09329814161146995
0.445833                  0.0918913015622769
0.446667                  0.09048249403304628
0.4475                    0.08907510099079172
0.448333                  0.0876674370067767
0.449167                  0.08625781526793436
0.45                      0.08484961979660594
0.450833                  0.08344116427982319
0.451667                  0.08203076107623881
0.4525                    0.080621796180439
0.453333                  0.07921258242895622
0.454167                  0.07780143138818964
0.455                     0.07639173093890883
0.455833                  0.07498179310295429
0.456667                  0.07356992869055314
0.4575                    0.0721595273815269
0.458333                  0.07074890041891878
0.459167                  0.0693363578945564
0.46                      0.06792529119778863
0.460833                  0.06651401083001508
0.461667                  0.06510082620324555
0.4625                    0.06368913032482912
0.463333                  0.062277232992972054
0.464167                  0.06086344297883507
0.465                     0.05945115481507124
0.465833                  0.05803867763544908
0.466667                  0.056624319610544795
0.4675                    0.055211476703584575
0.468333                  0.053798457423853904
0.469167                  0.05238356938193724
0.47                      0.05097020987583934
0.470833                  0.04955668683072634
0.471667                  0.048141307338773524
0.4725                    0.04672746993524256
0.473333                  0.045313482002540775
0.474167                  0.04389765015649578
0.475                     0.042483374070934
0.475833                  0.041068960627390516
0.476667                  0.03965271600799517
0.4775                    0.038238040925407495
0.478333                  0.03682324180268413
0.479167                  0.035406624431455765
0.48                      0.033991590462320094
0.480833                  0.032576445902913156
0.481667                  0.03115949619801969
0.4825                    0.029744143834303707
0.483333                  0.0283286944475403
0.484167                  0.026911453179651896
0.485                     0.02549582325081936
0.485833                  0.02408010996876558
0.486667                  0.022662618217129726
0.4875                    0.021246751846068675
0.488333                  0.019830815879693073
0.489167                  0.018413114988024046
0.49                      0.016997053547262934
0.490833                  0.01558093634255708
0.491667                  0.014163067875274153
0.4925                    0.01274685294336832
0.493333                  0.011330596136018807
0.494167                  0.009912601828682461
0.495                     0.00849627507344838
0.495833                  0.00707992004328484
0.496667                  0.005661838664797808
0.4975                    0.004245423102388299
0.498333                  0.002828895271663151
0.499167                  0.0014103739401941234
0.5                       4.697488865204615E-17
