
0                         0
2.0000000000000003E-6     4.214463195823921E-6
4.000000000000001E-6      8.321995299744256E-6
6.0E-6                    1.2323128019181566E-5
8.000000000000001E-6      1.6218467479743426E-5
1.0E-5                    2.0008688535342032E-5
1.2E-5                    2.3694529228738135E-5
1.4000000000000001E-5     2.727678540155312E-5
1.6000000000000003E-5     3.075630545270077E-5
1.8000000000000004E-5     3.4133985244107924E-5
2.0E-5                    3.741076315251908E-5
2.2E-5                    4.058761526611177E-5
2.4E-5                    4.366555072458998E-5
2.6000000000000002E-5     4.664560720136768E-5
2.8000000000000003E-5     4.952884652640887E-5
3.0000000000000008E-5     5.2316350448249635E-5
3.2000000000000005E-5     5.5009216533693226E-5
3.4000000000000007E-5     5.7608554203640995E-5
3.600000000000001E-5      6.011548090349846E-5
3.8E-5                    6.25311184065793E-5
4.0E-5                    6.485658924892222E-5
4.2E-5                    6.709301329392225E-5
4.4E-5                    6.92415044251831E-5
4.6E-5                    7.130316736599894E-5
4.8E-5                    7.327909462388059E-5
5.0E-5                    7.517036355855907E-5
5.2000000000000004E-5     7.697803357190979E-5
5.4000000000000005E-5     7.870314341826795E-5
5.6000000000000006E-5     8.034670863363058E-5
5.800000000000001E-5      8.190971908226565E-5
6.0000000000000015E-5     8.339313661928527E-5
6.200000000000002E-5      8.479789286777937E-5
6.400000000000001E-5      8.612488710913931E-5
6.600000000000002E-5      8.737498428524579E-5
6.800000000000001E-5      8.854901311124482E-5
7.0E-5                    8.964776429768476E-5
7.200000000000002E-5      9.067198888083132E-5
7.4E-5                    9.162239666003801E-5
7.6E-5                    9.2499654741107E-5
7.800000000000001E-5      9.3304386184629E-5
8.0E-5                    9.40371687583547E-5
8.200000000000001E-5      9.469853379270986E-5
8.4E-5                    9.528896513863463E-5
8.600000000000002E-5      9.580889822699468E-5
8.8E-5                    9.625871922887027E-5
9.000000000000002E-5      9.663876431610816E-5
9.2E-5                    9.694931902158462E-5
9.4E-5                    9.719061769870677E-5
9.6E-5                    9.73628430797405E-5
9.8E-5                    9.746612593263538E-5
1.0E-4                    9.7500544816084E-5
