
0                         0
2.0000000000000003E-6     8.472755776258242E-7
4.000000000000001E-6      1.5216930614561934E-6
6.0E-6                    2.0371554695139583E-6
8.000000000000001E-6      2.407020803971471E-6
1.0E-5                    2.6440836544028468E-6
1.2E-5                    2.760561980144549E-6
1.4000000000000001E-5     2.7680886169811966E-6
1.6000000000000003E-5     2.6777070738474577E-6
1.8000000000000004E-5     2.4998712060148615E-6
2.0E-5                    2.244448372162283E-6
2.2E-5                    1.9207257036726075E-6
2.4E-5                    1.5374191353305222E-6
2.6000000000000002E-5     1.1026848672104003E-6
2.8000000000000003E-5     6.241329478344275E-7
3.0000000000000008E-5     1.0884268856995392E-7
3.2000000000000005E-5     -4.366203613596564E-7
3.4000000000000007E-5     -1.0061861310167155E-6
3.600000000000001E-5      -1.5942606685523364E-6
3.8E-5                    -2.1957059225701676E-6
4.0E-5                    -2.805818863030547E-6
4.2E-5                    -3.42031012446783E-6
4.4E-5                    -4.035282338834445E-6
4.6E-5                    -4.647208310577286E-6
4.8E-5                    -5.252909172621231E-6
5.0E-5                    -5.8495326487699465E-6
5.2000000000000004E-5     -6.434531535656312E-6
5.4000000000000005E-5     -7.005642505756842E-6
5.6000000000000006E-5     -7.560865322141916E-6
5.800000000000001E-5      -8.098442545537131E-6
6.0000000000000015E-5     -8.616839804916094E-6
6.200000000000002E-5      -9.11472669421013E-6
6.400000000000001E-5      -9.59095834978689E-6
6.600000000000002E-5      -1.004455775609503E-5
6.800000000000001E-5      -1.0474698820271791E-5
7.0E-5                    -1.0880690250539412E-5
7.200000000000002E-5      -1.126196026784638E-5
7.4E-5                    -1.16180421754124E-5
7.6E-5                    -1.194856080658325E-5
7.800000000000001E-5      -1.2253219867660405E-5
8.0E-5                    -1.253179018911194E-5
8.200000000000001E-5      -1.2784098895762464E-5
8.4E-5                    -1.3010019504167588E-5
8.600000000000002E-5      -1.3209462953373447E-5
8.8E-5                    -1.3382369573606268E-5
9.000000000000002E-5      -1.3528701996102104E-5
9.2E-5                    -1.3648439006236744E-5
9.4E-5                    -1.3741570341317495E-5
9.6E-5                    -1.380809243381999E-5
9.8E-5                    -1.3848005100457476E-5
1.0E-4                    -1.386130917722789E-5
