
0                         5.598659674821908E-4
8.33E-4                   5.148434091727747E-4
0.001667                  4.611149459610522E-4
0.0025                    4.1100178304638677E-4
0.003333                  3.621624507819277E-4
0.004167                  3.1399156575413826E-4
0.005                     2.6632393135291596E-4
0.005833                  2.191939138084938E-4
0.006667                  1.726448991222095E-4
0.0075                    1.266205354074848E-4
0.008333                  8.116618749154604E-5
0.009167                  3.632480564182469E-5
0.01                      -7.959527374098198E-6
0.010833                  -5.164331878581475E-5
0.011667                  -9.468561068285423E-5
0.0125                    -1.3714173497261838E-4
0.013333                  -1.789701556572994E-4
0.014167                  -2.2013196681366936E-4
0.015                     -2.6068174134571666E-4
0.015833                  -3.0057996937276347E-4
0.016667                  -3.397898535307333E-4
0.0175                    -3.783650437204501E-4
0.018333                  -4.162681158883936E-4
0.019167                  -4.534644280482475E-4
0.02                      -4.900065528954704E-4
0.020833                  -5.258592021905935E-4
0.021667                  -5.609899265624761E-4
0.0225                    -5.954500773133814E-4
0.023333                  -6.292065423343472E-4
0.024167                  -6.622290928366897E-4
0.025                     -6.94567724656014E-4
0.025833                  -7.261915327904864E-4
0.026667                  -7.570725279693917E-4
0.0275                    -7.872592266562064E-4
0.028333                  -8.167229528262825E-4
0.029167                  -8.454379669537792E-4
0.03                      -8.73451192428451E-4
0.030833                  -9.007361952793589E-4
0.031667                  -9.272694875151181E-4
0.0325                    -9.530962959471891E-4
0.033333                  -9.781924332439402E-4
0.034167                  -0.0010025366566532754
0.035                     -0.0010261724030779236
0.035833                  -0.0010490777282484045
0.036667                  -0.0010712336205877264
0.0375                    -0.0010926816438456355
0.038333                  -0.0011134020853517921
0.039167                  -0.0011333781433543095
0.04                      -0.0011526494351951266
0.040833                  -0.0011711984608438989
0.041667                  -0.001189010599938839
0.0425                    -0.0012061234600199877
0.043333                  -0.0012225217276595698
0.044167                  -0.0012381929288202969
0.045                     -0.0012531726075293882
0.045833                  -0.001267447604180098
0.046667                  -0.0012810075497621757
0.0475                    -0.0012938858805533512
0.048333                  -0.0013060715515996637
0.049167                  -0.001317556251802268
0.05                      -0.0013283712747038268
0.050833                  -0.0013385076449174476
0.051667                  -0.0013479590566617668
0.0525                    -0.0013567546348349942
0.053333                  -0.0013648874228899843
0.054167                  -0.0013723530627688658
0.055                     -0.0013791784935107208
0.055833                  -0.0013853587215972676
0.056667                  -0.0013908912744559907
0.0575                    -0.001395800896507223
0.058333                  -0.0014000844966878673
0.059167                  -0.00140374142143816
0.06                      -0.0014067942199825292
0.060833                  -0.0014092416387709772
0.061667                  -0.0014110847729714715
0.0625                    -0.0014123439838693854
0.063333                  -0.0014130197865302753
0.064167                  -0.001413114951184218
0.065                     -0.0014126476658858432
0.065833                  -0.0014116201419197023
0.066667                  -0.0014100367478327134
0.0675                    -0.0014079135203772214
0.068333                  -0.0014052542914581188
0.069167                  -0.001402064948610862
0.07                      -0.0013983594059531934
0.070833                  -0.001394143037704508
0.071667                  -0.0013894231688121848
0.0725                    -0.0013842116258386606
0.073333                  -0.0013785152446259942
0.074167                  -0.0013723427041261495
0.075                     -0.001365703784434997
0.075833                  -0.0013586067003830634
0.076667                  -0.0013510614000161233
0.0775                    -0.0013430756636923053
0.078333                  -0.0013346590009803041
0.079167                  -0.0013258225429869052
0.08                      -0.0013165721223292442
0.080833                  -0.0013069184578108038
0.081667                  -0.001296873776811944
0.0825                    -0.0012864420210305888
0.083333                  -0.0012756350321483523
0.084167                  -0.0012644660465665435
0.085                     -0.001252937176389924
0.085833                  -0.0012410612992245966
0.086667                  -0.0012288525731885735
0.0875                    -0.0012163113461266593
0.088333                  -0.0012034514444672223
0.089167                  -0.0011902878608960905
0.09                      -0.0011768192480518694
0.090833                  -0.0011630602941313912
0.091667                  -0.0011490267398116278
0.0925                    -0.0011347156147968201
0.093333                  -0.0011201423824739295
0.094167                  -0.0011053234456739577
0.095                     -0.0010902542863889312
0.095833                  -0.00107495105725709
0.096667                  -0.0010594307385683721
0.0975                    -0.0010436873422605215
0.098333                  -0.0010277376253377065
0.099167                  -0.0010115990621163916
0.1                       -9.95264274343471E-4
0.100833                  -9.78750539668487E-4
0.101667                  -9.620757446604508E-4
0.1025                    -9.452312024138772E-4
0.103333                  -9.2823462909001E-4
0.104167                  -9.111042434486615E-4
0.105                     -8.938301329627934E-4
0.105833                  -8.764303717977465E-4
0.106667                  -8.589234329814836E-4
0.1075                    -8.412982623192664E-4
0.108333                  -8.235732135355048E-4
0.109167                  -8.057669380615644E-4
0.11                      -7.878673248800108E-4
0.110833                  -7.698929308356698E-4
0.111667                  -7.518625124440594E-4
0.1125                    -7.337629869081791E-4
0.113333                  -7.156130402227353E-4
0.114167                  -6.974314631192439E-4
0.115                     -6.792042862525182E-4
0.115833                  -6.609502531781112E-4
0.116667                  -6.426881208111683E-4
0.1175                    -6.244031181084129E-4
0.118333                  -6.061139774078354E-4
0.119167                  -5.878393564179437E-4
0.12                      -5.695637669364873E-4
0.120833                  -5.513058638892014E-4
0.121667                  -5.330841435914026E-4
0.1225                    -5.148824841778206E-4
0.123333                  -4.967194000342699E-4
0.124167                  -4.786131668340715E-4
0.125                     -4.605471115801004E-4
0.125833                  -4.425395480088787E-4
0.126667                  -4.246084750326761E-4
0.1275                    -4.0673674970943574E-4
0.128333                  -3.8894242812832243E-4
0.129167                  -3.7124317956316414E-4
0.13                      -3.536214707629749E-4
0.130833                  -3.360950463166613E-4
0.131667                  -3.1868119639103247E-4
0.1325                    -3.013620751998596E-4
0.133333                  -2.841550652883878E-4
0.134167                  -2.6707703142432647E-4
0.135                     -2.501098911919375E-4
0.135833                  -2.3327061783968146E-4
0.136667                  -2.165756079081875E-4
0.1375                    -2.0000661594176062E-4
0.138333                  -1.8358016204979695E-4
0.139167                  -1.6731213497832049E-4
0.14                      -1.511841976490235E-4
0.140833                  -1.3521237641512482E-4
0.141667                  -1.1941201621730009E-4
0.1425                    -1.0376475702476543E-4
0.143333                  -8.828609438070083E-5
0.144167                  -7.2990796679044E-5
0.145                     -5.786054710900227E-5
0.145833                  -4.2910276568620484E-5
0.146667                  -2.8154147519784625E-5
0.1475                    -1.3573949772220317E-5
0.148333                  8.159808387256195E-7
0.149167                  1.5002113825194599E-5
0.15                      2.900249231040583E-5
0.150833                  4.2803402621464844E-5
0.151667                  5.6391968952365354E-5
0.1525                    6.978600993682736E-5
0.153333                  8.297245780083002E-5
0.154167                  9.593911103782218E-5
0.155                     1.0870350928484415E-4
0.155833                  1.2125325130802632E-4
0.156667                  1.335768261772478E-4
0.1575                    1.4569144336360748E-4
0.158333                  1.5758538548506075E-4
0.159167                  1.6924784542427307E-4
0.16                      1.8069565447282858E-4
0.160833                  1.9191779334443986E-4
0.161667                  2.029041689049804E-4
0.1625                    2.1367118952089878E-4
0.163333                  2.2420854513888387E-4
0.164167                  2.3450686395393877E-4
0.165                     2.4458208980422593E-4
0.165833                  2.544246301691906E-4
0.166667                  2.640258389331676E-4
0.1675                    2.734011572505186E-4
0.168333                  2.8254171544052E-4
0.169167                  2.91439594737664E-4
0.17                      3.00109698713734E-4
0.170833                  3.085438831081485E-4
0.171667                  3.167349554824256E-4
0.1725                    3.2469725020668733E-4
0.173333                  3.3242334833018716E-4
0.174167                  3.399067802812701E-4
0.175                     3.4716128284710226E-4
0.175833                  3.541801596527779E-4
0.176667                  3.6095765806875186E-4
0.1775                    3.675068921772052E-4
0.178333                  3.7382188312348264E-4
0.179167                  3.798975869171403E-4
0.18                      3.857464730461565E-4
0.180833                  3.9136327268181017E-4
0.181667                  3.967436400260949E-4
0.1825                    4.0189938123276123E-4
0.183333                  4.0682592778425094E-4
0.184167                  4.1151961966693924E-4
0.185                     4.159915839608955E-4
0.185833                  4.202379407092006E-4
0.186667                  4.2425570121984457E-4
0.1875                    4.280553008845895E-4
0.188333                  4.31633534557724E-4
0.189167                  4.3498806866203014E-4
0.19                      4.3812863719360976E-4
0.190833                  4.410526942292689E-4
0.191667                  4.4375854342537294E-4
0.1925                    4.462552105203627E-4
0.193333                  4.485407915297301E-4
0.194167                  4.5061420793392383E-4
0.195                     4.524837731590455E-4
0.195833                  4.5414820625222816E-4
0.196667                  4.5560702570997556E-4
0.1975                    4.568678312213295E-4
0.198333                  4.579299445923318E-4
0.199167                  4.5879345922003096E-4
0.2                       4.5946526223713483E-4
0.200833                  4.599452565620885E-4
0.201667                  4.602340872469123E-4
0.2025                    4.603379325163924E-4
0.203333                  4.6025725356709375E-4
0.204167                  4.599932228786678E-4
0.205                     4.595513157489564E-4
0.205833                  4.589325277965308E-4
0.206667                  4.581385337516411E-4
0.2075                    4.571741142195977E-4
0.208333                  4.560407744453719E-4
0.209167                  4.547406655211529E-4
0.21                      4.5327788370906684E-4
0.210833                  4.5165441826927453E-4
0.211667                  4.49872870106055E-4
0.2125                    4.4793666349978014E-4
0.213333                  4.458482454410427E-4
0.214167                  4.4361063958236877E-4
0.215                     4.41226612452337E-4
0.215833                  4.386990419343466E-4
0.216667                  4.3603134696226624E-4
0.2175                    4.3322565229583846E-4
0.218333                  4.302852394322865E-4
0.219167                  4.2721389483591773E-4
0.22                      4.240131191061438E-4
0.220833                  4.206865697498721E-4
0.221667                  4.1723837283361094E-4
0.2225                    4.136694239035556E-4
0.223333                  4.0998372865795976E-4
0.224167                  4.0618572477277634E-4
0.225                     4.0227572321200526E-4
0.225833                  3.982580499557733E-4
0.226667                  3.941374263089469E-4
0.2275                    3.8991360039350816E-4
0.228333                  3.8559119053585073E-4
0.229167                  3.811751738457627E-4
0.23                      3.7666475843701916E-4
0.230833                  3.720648271651299E-4
0.231667                  3.6738058533489107E-4
0.2325                    3.626107248857328E-4
0.233333                  3.577603655672984E-4
0.234167                  3.528349135949006E-4
0.235                     3.478325694363121E-4
0.235833                  3.4275866240390286E-4
0.236667                  3.3761877269239393E-4
0.2375                    3.324106347802831E-4
0.238333                  3.2713976055174067E-4
0.239167                  3.218118777883877E-4
0.24                      3.164242810459644E-4
0.240833                  3.109826382590434E-4
0.241667                  3.054927989280002E-4
0.2425                    2.9995164428592796E-4
0.243333                  2.943649723195298E-4
0.244167                  2.8873872900492617E-4
0.245                     2.8306940926241394E-4
0.245833                  2.7736291572469444E-4
0.246667                  2.7162526628607484E-4
0.2475                    2.658525968189415E-4
0.248333                  2.600508899128667E-4
0.249167                  2.5422621153863316E-4
0.25                      2.4837436601685635E-4
0.250833                  2.4250139183579659E-4
0.251667                  2.3661338009311827E-4
0.2525                    2.307058310481729E-4
0.253333                  2.247848159130831E-4
0.254167                  2.1885642867253372E-4
0.255                     2.1291589319165819E-4
0.255833                  2.069692908765514E-4
0.256667                  2.0102269739467155E-4
0.2575                    1.9507108757215412E-4
0.258333                  1.8912053157997096E-4
0.259167                  1.8317706636665924E-4
0.26                      1.7723544492388775E-4
0.260833                  1.7130170561175127E-4
0.261667                  1.65381827322881E-4
0.2625                    1.5947036809517754E-4
0.263333                  1.535733147884652E-4
0.264167                  1.4769656984365978E-4
0.265                     1.4183452303024961E-4
0.265833                  1.3599309091400416E-4
0.266667                  1.301780821808608E-4
0.2675                    1.2438374435612073E-4
0.268333                  1.1861590617838651E-4
0.269167                  1.1288026614879131E-4
0.27                      1.071709551305997E-4
0.270833                  1.0149369742716391E-4
0.271667                  9.585406614095223E-5
0.2725                    9.024610041080847E-5
0.273333                  8.467540447314467E-5
0.274167                  7.914741181022307E-5
0.275                     7.365609430750563E-5
0.275833                  6.820692149932729E-5
0.276667                  6.28051741442511E-5
0.2775                    5.744478043339538E-5
0.278333                  5.2131061835355866E-5
0.279167                  4.68691342523107E-5
0.28                      4.165290504792242E-5
0.280833                  3.648753525774592E-5
0.281667                  3.137796489925219E-5
0.2825                    2.631810262278749E-5
0.283333                  2.1312937557988492E-5
0.284167                  1.636722406445575E-5
0.285                     1.147489314346247E-5
0.285833                  6.6407518911914295E-6
0.286667                  1.869359973121122E-6
0.2875                    -2.8453088226257504E-6
0.288333                  -7.498638742337626E-6
0.289167                  -1.2086272560517005E-5
0.29                      -1.6614174435393763E-5
0.290833                  -2.1077928043317153E-5
0.291667                  -2.547338547003645E-5
0.2925                    -2.9806430314342812E-5
0.293333                  -3.4072852897963126E-5
0.294167                  -3.8268720420022954E-5
0.295                     -4.239981849399301E-5
0.295833                  -4.6462150176186E-5
0.296667                  -5.045200261382621E-5
0.2975                    -5.4375047011897705E-5
0.298333                  -5.822750429661157E-5
0.299167                  -6.200588546082441E-5
0.3                       -6.571573181652866E-5
0.300833                  -6.935348641797262E-5
0.301667                  -7.291588698407758E-5
0.3025                    -7.640833056830823E-5
0.303333                  -7.982748555100982E-5
0.304167                  -8.317031844310642E-5
0.305                     -8.64420687250965E-5
0.305833                  -8.963963237442309E-5
0.306667                  -9.276020589302562E-5
0.3075                    -9.580885881826732E-5
0.308333                  -9.878271624829554E-5
0.309167                  -1.0167920496090884E-4
0.31                      -1.045032132980873E-4
0.310833                  -1.0725209606952494E-4
0.311667                  -1.0992350989276798E-4
0.3125                    -1.125221516011973E-4
0.313333                  -1.1504560556156992E-4
0.314167                  -1.1749175697096435E-4
0.315                     -1.1986510201244135E-4
0.315833                  -1.2216345354971797E-4
0.316667                  -1.243849234318787E-4
0.3175                    -1.2653379895614833E-4
0.318333                  -1.2860811981854007E-4
0.319167                  -1.3060622188145485E-4
0.32                      -1.3253217631660464E-4
0.320833                  -1.343842472730999E-4
0.321667                  -1.361609912858723E-4
0.3225                    -1.378662572593123E-4
0.323333                  -1.394985306671904E-4
0.324167                  -1.4105658486649538E-4
0.325                     -1.4254404121284486E-4
0.325833                  -1.4395960284301046E-4
0.326667                  -1.4530225543718528E-4
0.3275                    -1.465753885384362E-4
0.328333                  -1.477779186728098E-4
0.329167                  -1.48909038853379E-4
0.33                      -1.4997190344209605E-4
0.330833                  -1.5096563753311558E-4
0.331667                  -1.518896360245959E-4
0.3325                    -1.5274681560812421E-4
0.333333                  -1.5353650465635464E-4
0.334167                  -1.5425829401386135E-4
0.335                     -1.5491486112115236E-4
0.335833                  -1.5550573188388548E-4
0.336667                  -1.5603068674981973E-4
0.3375                    -1.564921631678858E-4
0.338333                  -1.568898783862998E-4
0.339167                  -1.5722379580267618E-4
0.34                      -1.5749611291077342E-4
0.340833                  -1.577067317645608E-4
0.341667                  -1.57855791704844E-4
0.3425                    -1.5794525111253302E-4
0.343333                  -1.5797518996114442E-4
0.344167                  -1.57945916265677E-4
0.345                     -1.5785915085545882E-4
0.345833                  -1.577151444700753E-4
0.346667                  -1.5751436625877104E-4
0.3475                    -1.5725830180195413E-4
0.348333                  -1.569473651689014E-4
0.349167                  -1.5658217893126556E-4
0.35                      -1.5616399637634028E-4
0.350833                  -1.5569338726261007E-4
0.351667                  -1.5517111969358E-4
0.3525                    -1.5459821825731398E-4
0.353333                  -1.5397540059262823E-4
0.354167                  -1.5330357231091592E-4
0.355                     -1.5258353349992056E-4
0.355833                  -1.5181614171733596E-4
0.356667                  -1.5100243197139422E-4
0.3575                    -1.5014298460823205E-4
0.358333                  -1.4923878904661667E-4
0.359167                  -1.4829100150776868E-4
0.36                      -1.472999878915155E-4
0.360833                  -1.4626686133062167E-4
0.361667                  -1.451928910656449E-4
0.3625                    -1.440782343144018E-4
0.363333                  -1.4292411975890164E-4
0.364167                  -1.4173192144677216E-4
0.365                     -1.405015941510701E-4
0.365833                  -1.3923447391087573E-4
0.366667                  -1.379320314103097E-4
0.3675                    -1.3659402561722563E-4
0.368333                  -1.3522189176942416E-4
0.369167                  -1.3381718907223822E-4
0.37                      -1.3237948770693903E-4
0.370833                  -1.3091031399869058E-4
0.371667                  -1.29411307636743E-4
0.3725                    -1.2788185739257427E-4
0.373333                  -1.2632357262297474E-4
0.374167                  -1.2473816559229234E-4
0.375                     -1.2312485132629763E-4
0.375833                  -1.2148531428807531E-4
0.376667                  -1.198213315109204E-4
0.3775                    -1.1813195221128737E-4
0.378333                  -1.1641892815528524E-4
0.379167                  -1.1468409352221599E-4
0.38                      -1.1292633988978382E-4
0.380833                  -1.1114747863754632E-4
0.381667                  -1.0934939364469538E-4
0.3825                    -1.075308272224309E-4
0.383333                  -1.0569364288440477E-4
0.384167                  -1.0383976690675687E-4
0.385                     -1.0196780090081882E-4
0.385833                  -1.000796531910471E-4
0.386667                  -9.817728538852169E-5
0.3875                    -9.625916709422932E-5
0.388333                  -9.432724431990646E-5
0.389167                  -9.238350717311894E-5
0.39                      -9.042630204381436E-5
0.390833                  -8.845760572686732E-5
0.391667                  -8.647943019233436E-5
0.3925                    -8.449000753146799E-5
0.393333                  -8.249133862234374E-5
0.394167                  -8.048545095684993E-5
0.395                     -7.847047122142024E-5
0.395833                  -7.64484179792375E-5
0.396667                  -7.442132808903954E-5
0.3975                    -7.238723182261954E-5
0.398333                  -7.03481592201315E-5
0.399167                  -6.830615067085766E-5
0.4                       -6.625914897534233E-5
0.400833                  -6.420918972227506E-5
0.401667                  -6.215831123737117E-5
0.4025                    -6.0104377786806035E-5
0.403333                  -5.804942485752527E-5
0.404167                  -5.599548335847727E-5
0.405                     -5.394034793642773E-5
0.405833                  -5.18860485612479E-5
0.406667                  -4.9834603696820315E-5
0.4075                    -4.7783747183319997E-5
0.408333                  -4.573549832627392E-5
0.409167                  -4.369185839553006E-5
0.41                      -4.1650509129701956E-5
0.410833                  -3.9613454357708556E-5
0.411667                  -3.758267362144798E-5
0.4125                    -3.555580520709028E-5
0.413333                  -3.3534832860309013E-5
0.414167                  -3.152171019465498E-5
0.415                     -2.9514040524937415E-5
0.415833                  -2.751378321773931E-5
0.416667                  -2.5522861986367284E-5
0.4175                    -2.3538853568313294E-5
0.418333                  -2.1563688884061798E-5
0.419167                  -1.959925808103244E-5
0.42                      -1.7643119489677698E-5
0.420833                  -1.5697171854287E-5
0.421667                  -1.3763268312667555E-5
0.4225                    -1.183895680696534E-5
0.423333                  -9.926100420006235E-6
0.424167                  -8.026512104997341E-6
0.425                     -6.137737281651784E-6
0.425833                  -4.261600087547684E-6
0.426667                  -2.3998704002643347E-6
0.4275                    -5.500987586018253E-7
0.428333                  1.2859326267955668E-6
0.429167                  3.1064996272292675E-6
0.43                      4.914039161288245E-6
0.430833                  6.7068136746696415E-6
0.431667                  8.483147250256691E-6
0.4325                    1.024545700300892E-5
0.433333                  1.1992052578733774E-5
0.434167                  1.3721308447290155E-5
0.435                     1.5435614963577925E-5
0.435833                  1.7133331224393948E-5
0.436667                  1.881288410435126E-5
0.4375                    2.0476630396085798E-5
0.438333                  2.2122980734128534E-5
0.439167                  2.3750416197024898E-5
0.44                      2.536125347873888E-5
0.440833                  2.695395661420156E-5
0.441667                  2.8527062448142316E-5
0.4425                    3.0082841320098696E-5
0.443333                  3.1619812305899794E-5
0.444167                  3.3136569454548934E-5
0.445                     3.463533068705647E-5
0.445833                  3.6114671604584026E-5
0.446667                  3.757324469026254E-5
0.4475                    3.901320967173827E-5
0.448333                  4.043319995827684E-5
0.449167                  4.183192757280685E-5
0.45                      4.3211488486854174E-5
0.450833                  4.457057507061199E-5
0.451667                  4.59079597884795E-5
0.4525                    4.7225669607796846E-5
0.453333                  4.852245685013266E-5
0.454167                  4.979715519649347E-5
0.455                     5.1051717604127985E-5
0.455833                  5.228495716327245E-5
0.456667                  5.3495769471286874E-5
0.4575                    5.468602870493568E-5
0.458333                  5.5854609442317654E-5
0.459167                  5.700046974260911E-5
0.46                      5.812540051322121E-5
0.460833                  5.92283384219718E-5
0.461667                  6.0308304433240253E-5
0.4625                    6.136700195641471E-5
0.463333                  6.24034302410946E-5
0.464167                  6.34166735316278E-5
0.465                     6.44083437494935E-5
0.465833                  6.53775031394349E-5
0.466667                  6.632329948444677E-5
0.4675                    6.724724954154012E-5
0.468333                  6.814847884012163E-5
0.469167                  6.902619893175467E-5
0.47                      6.988182794816758E-5
0.470833                  7.071455495805712E-5
0.471667                  7.152365542496797E-5
0.4725                    7.231044567735483E-5
0.473333                  7.307417849776236E-5
0.474167                  7.381419336505233E-5
0.475                     7.453170188278721E-5
0.475833                  7.522602067263281E-5
0.476667                  7.58965532940695E-5
0.4775                    7.65444039505775E-5
0.478333                  7.71689532016452E-5
0.479167                  7.776966870367341E-5
0.48                      7.834754486035219E-5
0.480833                  7.890202620936763E-5
0.481667                  7.943264451239633E-5
0.4825                    7.994028223195249E-5
0.483333                  8.042444789597316E-5
0.484167                  8.088473736104971E-5
0.485                     8.132191924734685E-5
0.485833                  8.173556608666516E-5
0.486667                  8.212533779698365E-5
0.4875                    8.249188752166127E-5
0.488333                  8.283485178324962E-5
0.489167                  8.315395453229055E-5
0.49                      8.344973204235334E-5
0.490833                  8.372188481292442E-5
0.491667                  8.397020077800067E-5
0.4925                    8.41950981380927E-5
0.493333                  8.439634084091178E-5
0.494167                  8.457377767009551E-5
0.495                     8.47276890552894E-5
0.495833                  8.485779812704527E-5
0.496667                  8.496350828835717E-5
0.4975                    8.504314074131099E-5
0.498333                  8.509445724875868E-5
0.499167                  8.514394877262769E-5
0.5                       8.516679920713178E-5
