[Info]
Version 1
Dimension 2
NumNodes 144
Num3DElements 0
Num2DElements 121
Num1DElements 0
NumNodeBC 52
NumSaveNodes 0
NumSaveElements 0
Num 2d-line      : 0
Num 2d-line,quad : 0
Num 3d-line      : 0
Num 3d-line,quad : 0
Num triangle     : 0
Num triangle,quad: 0
Num quadr        : 121
Num quadr,quad   : 0
Num tetra        : 0
Num tetra,quad   : 0
Num brick        : 0
Num brick,quad   : 0
Num pyramid      : 0
Num pyramid,quad : 0
Num wedge        : 0
Num wedge,quad   : 0

[Nodes]
#NodeNr x-coord y-coord z-coord
1  0.0  0.0  0.0
2  0.0909090909091  0.0  0.0
3  0.181818181818  0.0  0.0
4  0.272727272727  0.0  0.0
5  0.363636363636  0.0  0.0
6  0.454545454545  0.0  0.0
7  0.545454545455  0.0  0.0
8  0.636363636364  0.0  0.0
9  0.727272727273  0.0  0.0
10  0.818181818182  0.0  0.0
11  0.909090909091  0.0  0.0
12  1.0  0.0  0.0
13  0.0  0.0909090909091  0.0
14  0.0909090909091  0.0909090909091  0.0
15  0.181818181818  0.0909090909091  0.0
16  0.272727272727  0.0909090909091  0.0
17  0.363636363636  0.0909090909091  0.0
18  0.454545454545  0.0909090909091  0.0
19  0.545454545455  0.0909090909091  0.0
20  0.636363636364  0.0909090909091  0.0
21  0.727272727273  0.0909090909091  0.0
22  0.818181818182  0.0909090909091  0.0
23  0.909090909091  0.0909090909091  0.0
24  1.0  0.0909090909091  0.0
25  0.0  0.181818181818  0.0
26  0.0909090909091  0.181818181818  0.0
27  0.181818181818  0.181818181818  0.0
28  0.272727272727  0.181818181818  0.0
29  0.363636363636  0.181818181818  0.0
30  0.454545454545  0.181818181818  0.0
31  0.545454545455  0.181818181818  0.0
32  0.636363636364  0.181818181818  0.0
33  0.727272727273  0.181818181818  0.0
34  0.818181818182  0.181818181818  0.0
35  0.909090909091  0.181818181818  0.0
36  1.0  0.181818181818  0.0
37  0.0  0.272727272727  0.0
38  0.0909090909091  0.272727272727  0.0
39  0.181818181818  0.272727272727  0.0
40  0.272727272727  0.272727272727  0.0
41  0.363636363636  0.272727272727  0.0
42  0.454545454545  0.272727272727  0.0
43  0.545454545455  0.272727272727  0.0
44  0.636363636364  0.272727272727  0.0
45  0.727272727273  0.272727272727  0.0
46  0.818181818182  0.272727272727  0.0
47  0.909090909091  0.272727272727  0.0
48  1.0  0.272727272727  0.0
49  0.0  0.363636363636  0.0
50  0.0909090909091  0.363636363636  0.0
51  0.181818181818  0.363636363636  0.0
52  0.272727272727  0.363636363636  0.0
53  0.363636363636  0.363636363636  0.0
54  0.454545454545  0.363636363636  0.0
55  0.545454545455  0.363636363636  0.0
56  0.636363636364  0.363636363636  0.0
57  0.727272727273  0.363636363636  0.0
58  0.818181818182  0.363636363636  0.0
59  0.909090909091  0.363636363636  0.0
60  1.0  0.363636363636  0.0
61  0.0  0.454545454545  0.0
62  0.0909090909091  0.454545454545  0.0
63  0.181818181818  0.454545454545  0.0
64  0.272727272727  0.454545454545  0.0
65  0.363636363636  0.454545454545  0.0
66  0.454545454545  0.454545454545  0.0
67  0.545454545455  0.454545454545  0.0
68  0.636363636364  0.454545454545  0.0
69  0.727272727273  0.454545454545  0.0
70  0.818181818182  0.454545454545  0.0
71  0.909090909091  0.454545454545  0.0
72  1.0  0.454545454545  0.0
73  0.0  0.545454545455  0.0
74  0.0909090909091  0.545454545455  0.0
75  0.181818181818  0.545454545455  0.0
76  0.272727272727  0.545454545455  0.0
77  0.363636363636  0.545454545455  0.0
78  0.454545454545  0.545454545455  0.0
79  0.545454545455  0.545454545455  0.0
80  0.636363636364  0.545454545455  0.0
81  0.727272727273  0.545454545455  0.0
82  0.818181818182  0.545454545455  0.0
83  0.909090909091  0.545454545455  0.0
84  1.0  0.545454545455  0.0
85  0.0  0.636363636364  0.0
86  0.0909090909091  0.636363636364  0.0
87  0.181818181818  0.636363636364  0.0
88  0.272727272727  0.636363636364  0.0
89  0.363636363636  0.636363636364  0.0
90  0.454545454545  0.636363636364  0.0
91  0.545454545455  0.636363636364  0.0
92  0.636363636364  0.636363636364  0.0
93  0.727272727273  0.636363636364  0.0
94  0.818181818182  0.636363636364  0.0
95  0.909090909091  0.636363636364  0.0
96  1.0  0.636363636364  0.0
97  0.0  0.727272727273  0.0
98  0.0909090909091  0.727272727273  0.0
99  0.181818181818  0.727272727273  0.0
100  0.272727272727  0.727272727273  0.0
101  0.363636363636  0.727272727273  0.0
102  0.454545454545  0.727272727273  0.0
103  0.545454545455  0.727272727273  0.0
104  0.636363636364  0.727272727273  0.0
105  0.727272727273  0.727272727273  0.0
106  0.818181818182  0.727272727273  0.0
107  0.909090909091  0.727272727273  0.0
108  1.0  0.727272727273  0.0
109  0.0  0.818181818182  0.0
110  0.0909090909091  0.818181818182  0.0
111  0.181818181818  0.818181818182  0.0
112  0.272727272727  0.818181818182  0.0
113  0.363636363636  0.818181818182  0.0
114  0.454545454545  0.818181818182  0.0
115  0.545454545455  0.818181818182  0.0
116  0.636363636364  0.818181818182  0.0
117  0.727272727273  0.818181818182  0.0
118  0.818181818182  0.818181818182  0.0
119  0.909090909091  0.818181818182  0.0
120  1.0  0.818181818182  0.0
121  0.0  0.909090909091  0.0
122  0.0909090909091  0.909090909091  0.0
123  0.181818181818  0.909090909091  0.0
124  0.272727272727  0.909090909091  0.0
125  0.363636363636  0.909090909091  0.0
126  0.454545454545  0.909090909091  0.0
127  0.545454545455  0.909090909091  0.0
128  0.636363636364  0.909090909091  0.0
129  0.727272727273  0.909090909091  0.0
130  0.818181818182  0.909090909091  0.0
131  0.909090909091  0.909090909091  0.0
132  1.0  0.909090909091  0.0
133  0.0  1.0  0.0
134  0.0909090909091  1.0  0.0
135  0.181818181818  1.0  0.0
136  0.272727272727  1.0  0.0
137  0.363636363636  1.0  0.0
138  0.454545454545  1.0  0.0
139  0.545454545455  1.0  0.0
140  0.636363636364  1.0  0.0
141  0.727272727273  1.0  0.0
142  0.818181818182  1.0  0.0
143  0.909090909091  1.0  0.0
144  1.0  1.0  0.0

[1D Elements]
#ElemNr  ElemType  NrOfNodes  Level
#Node1 Node2 ... NodeNrOfNodes

[2D Elements]
#ElemNr  ElemType  NrOfNodes  Level
#Node1 Node2 ... NodeNrOfNodes
1 6 4 mech
1 2 14 13
2 6 4 mech
2 3 15 14
3 6 4 mech
3 4 16 15
4 6 4 mech
4 5 17 16
5 6 4 mech
5 6 18 17
6 6 4 mech
6 7 19 18
7 6 4 mech
7 8 20 19
8 6 4 mech
8 9 21 20
9 6 4 mech
9 10 22 21
10 6 4 mech
10 11 23 22
11 6 4 mech
11 12 24 23
12 6 4 mech
13 14 26 25
13 6 4 mech
14 15 27 26
14 6 4 mech
15 16 28 27
15 6 4 mech
16 17 29 28
16 6 4 mech
17 18 30 29
17 6 4 mech
18 19 31 30
18 6 4 mech
19 20 32 31
19 6 4 mech
20 21 33 32
20 6 4 mech
21 22 34 33
21 6 4 mech
22 23 35 34
22 6 4 mech
23 24 36 35
23 6 4 mech
25 26 38 37
24 6 4 mech
26 27 39 38
25 6 4 mech
27 28 40 39
26 6 4 mech
28 29 41 40
27 6 4 mech
29 30 42 41
28 6 4 mech
30 31 43 42
29 6 4 mech
31 32 44 43
30 6 4 mech
32 33 45 44
31 6 4 mech
33 34 46 45
32 6 4 mech
34 35 47 46
33 6 4 mech
35 36 48 47
34 6 4 mech
37 38 50 49
35 6 4 mech
38 39 51 50
36 6 4 mech
39 40 52 51
37 6 4 mech
40 41 53 52
38 6 4 mech
41 42 54 53
39 6 4 mech
42 43 55 54
40 6 4 mech
43 44 56 55
41 6 4 mech
44 45 57 56
42 6 4 mech
45 46 58 57
43 6 4 mech
46 47 59 58
44 6 4 mech
47 48 60 59
45 6 4 mech
49 50 62 61
46 6 4 mech
50 51 63 62
47 6 4 mech
51 52 64 63
48 6 4 mech
52 53 65 64
49 6 4 mech
53 54 66 65
50 6 4 mech
54 55 67 66
51 6 4 mech
55 56 68 67
52 6 4 mech
56 57 69 68
53 6 4 mech
57 58 70 69
54 6 4 mech
58 59 71 70
55 6 4 mech
59 60 72 71
56 6 4 mech
61 62 74 73
57 6 4 mech
62 63 75 74
58 6 4 mech
63 64 76 75
59 6 4 mech
64 65 77 76
60 6 4 mech
65 66 78 77
61 6 4 mech
66 67 79 78
62 6 4 mech
67 68 80 79
63 6 4 mech
68 69 81 80
64 6 4 mech
69 70 82 81
65 6 4 mech
70 71 83 82
66 6 4 mech
71 72 84 83
67 6 4 mech
73 74 86 85
68 6 4 mech
74 75 87 86
69 6 4 mech
75 76 88 87
70 6 4 mech
76 77 89 88
71 6 4 mech
77 78 90 89
72 6 4 mech
78 79 91 90
73 6 4 mech
79 80 92 91
74 6 4 mech
80 81 93 92
75 6 4 mech
81 82 94 93
76 6 4 mech
82 83 95 94
77 6 4 mech
83 84 96 95
78 6 4 mech
85 86 98 97
79 6 4 mech
86 87 99 98
80 6 4 mech
87 88 100 99
81 6 4 mech
88 89 101 100
82 6 4 mech
89 90 102 101
83 6 4 mech
90 91 103 102
84 6 4 mech
91 92 104 103
85 6 4 mech
92 93 105 104
86 6 4 mech
93 94 106 105
87 6 4 mech
94 95 107 106
88 6 4 mech
95 96 108 107
89 6 4 mech
97 98 110 109
90 6 4 mech
98 99 111 110
91 6 4 mech
99 100 112 111
92 6 4 mech
100 101 113 112
93 6 4 mech
101 102 114 113
94 6 4 mech
102 103 115 114
95 6 4 mech
103 104 116 115
96 6 4 mech
104 105 117 116
97 6 4 mech
105 106 118 117
98 6 4 mech
106 107 119 118
99 6 4 mech
107 108 120 119
100 6 4 mech
109 110 122 121
101 6 4 mech
110 111 123 122
102 6 4 mech
111 112 124 123
103 6 4 mech
112 113 125 124
104 6 4 mech
113 114 126 125
105 6 4 mech
114 115 127 126
106 6 4 mech
115 116 128 127
107 6 4 mech
116 117 129 128
108 6 4 mech
117 118 130 129
109 6 4 mech
118 119 131 130
110 6 4 mech
119 120 132 131
111 6 4 mech
121 122 134 133
112 6 4 mech
122 123 135 134
113 6 4 mech
123 124 136 135
114 6 4 mech
124 125 137 136
115 6 4 mech
125 126 138 137
116 6 4 mech
126 127 139 138
117 6 4 mech
127 128 140 139
118 6 4 mech
128 129 141 140
119 6 4 mech
129 130 142 141
120 6 4 mech
130 131 143 142
121 6 4 mech
131 132 144 143

[3D Elements]
#ElemNr  ElemType  NrOfNodes  Level
#Node1 Node2 ... NodeNrOfNodes

[Node BC]
#NodeNr Level
1 south
2 south
3 south
4 south
5 south
6 south
7 south
8 south
9 south
10 south
11 south
12 south
133 north
134 north
135 north
136 north
137 north
138 north
139 north
140 north
141 north
142 north
143 north
144 north
1 west
13 west
25 west
37 west
49 west
61 west
73 west
85 west
97 west
109 west
121 west
133 west
12 east
24 east
36 east
48 east
60 east
72 east
84 east
96 east
108 east
120 east
132 east
144 east
1 left_lower
12 right_lower
133 left_upper
144 right_upper

[Save Nodes]
#NodeNr Level

[Save Elements]
#ElemNr Level

